         run       event       nTopo   nIdTracks  nTauTracks       nTaus      nMuons       nElec   nTrueElec   nFakeElec       nPhot   nTruePhot   nFakePhot
      410000    43250001          72          69          45           8           3          13           4           9          13           7           6
      410000    43250002          69          66          21           6           0           8           2           6          11           3           8
      410000    43250003          59          50          26           4           1           5           0           5           5           3           2
      410000    43250004          86         111          36           5           0           7           0           7          10           7           3
      410000    43250005          55          65          32           5           1           5           1           4           3           1           2
      410000    43250006         105         111          48           7           0          14           0          14          10           8           2
      410000    43250007          82          92          17           2           0           7           1           6           2           1           1
      410000    43250008          69          46          22           5           0           8           1           7          11           8           3
      410000    43250009          67          63          34           7           1          13           1          12           7           4           3
      410000    43250010          50          47          24           7           2           4           1           3           9           4           5
      410000    43250011          43          62          15           4           3           5           2           3           3           3           0
      410000    43250012          50          67          36           6           0           4           2           2           8           6           2
      410000    43250013          57          83          30           4           0           6           1           5           8           6           2
      410000    43250014          48          52          23           6           1           7           2           5           6           5           1
      410000    43250015          68          82          38           6           1           8           2           6           4           4           0
      410000    43250016          66          55          30           4           4          11           1          10           7           6           1
      410000    43250017          47          44          36           7           1           4           1           3           8           6           2
      410000    43250018          54          55          21           5           2           3           0           3           5           4           1
      410000    43250019          90          94          69           9           2          12           0          12          11           4           7
      410000    43250020          64          67          29           4           0           4           0           4           7           7           0
      410000    43250021          73          71          21           4           0           7           1           6           5           5           0
      410000    43250023          77          79          69           9           4          13           1          12           9           7           2
      410000    43250024          42          25          21           4           1           8           2           6           4           3           1
      410000    43250027          72          68          33           6           0          12           3           9          10           3           7
      410000    43250030          55          52          24           3           2           5           0           5           3           1           2
