Athena               INFO executing ROOT6Setup
ApplicationMgr       INFO Application Manager Configured successfully
AthDictLoaderSvc     INFO in initialize...
AthDictLoaderSvc     INFO acquired Dso-registry
AthenaEventLoopMgr   INFO Initializing AthenaEventLoopMgr
EventInfoCnvAlg      INFO Initializing EventInfoCnvAlg
MetaDataSvc          INFO Initializing MetaDataSvc
PoolSvc             DEBUG OutputLevel is 2
AthenaPoolCnvSvc    DEBUG Setting StorageType to ROOTTREEINDEX
AthenaPoolCnvSvc    DEBUG Registering all Tools in ToolHandleArray OutputStreamingTool
EventSelector       DEBUG Initializing EventSelector
EventSelector       DEBUG reinitialization...
EventSelector        INFO EventSelection with query 
EventSelector       DEBUG Try item: "SimplePoolFile1.root" from the collection list.
PoolSvc             DEBUG createCollection() type=RootCollection, connection=PFN:SimplePoolFile1.root, name=SimplePoolFile1.root, contextID=0
SimplePoolFile1...  DEBUG --> Access   DbContainer  READ      [ROOT_All] ##Shapes
##Shapes            DEBUG Opening
##Shapes            DEBUG    attributes# = 1
##Shapes            DEBUG Opened container ##Shapes of type ROOT_Tree
SimplePoolFile1...  DEBUG --->Reading Shape[0 , C634FDB6-CC4B-4BA2-B8F9-A84BE6A786C7]: [1 Column(s)]
SimplePoolFile1...  DEBUG ---->[0]:EventInfo_p4 Typ:EventInfo_p4 [21] Size:0 Offset:0 #Elements:1
SimplePoolFile1...  DEBUG --->Reading Shape[1 , 6BB89FA1-EB62-4641-97CA-3F8DB6588053]: [1 Column(s)]
SimplePoolFile1...  DEBUG ---->[0]:ExampleHitContainer_p1 Typ:ExampleHitContainer_p1 [21] Size:0 Offset:0 #Elements:1
SimplePoolFile1...  DEBUG --->Reading Shape[2 , 4DDBD295-EFCE-472A-9EC8-15CD35A9EB8D]: [1 Column(s)]
SimplePoolFile1...  DEBUG ---->[0]:DataHeader_p6 Typ:DataHeader_p6 [21] Size:0 Offset:0 #Elements:1
SimplePoolFile1...  DEBUG --->Reading Shape[3 , 7BE56CEF-C866-4BEE-9348-A5F34B5F1DAD]: [1 Column(s)]
SimplePoolFile1...  DEBUG ---->[0]:DataHeaderForm_p6 Typ:DataHeaderForm_p6 [21] Size:0 Offset:0 #Elements:1
SimplePoolFile1...  DEBUG --->Reading Shape[4 , E013D4B1-CA9C-4E3C-9BE2-8691BBAFCB9A]: [1 Column(s)]
SimplePoolFile1...  DEBUG ---->[0]:Token Typ:Token [18] Size:0 Offset:0 #Elements:1
SimplePoolFile1...  DEBUG --->Reading Shape[5 , BBACA313-D7B0-3A4C-9161-089CACF4B1CC]: [1 Column(s)]
SimplePoolFile1...  DEBUG ---->[0]:unsigned int Typ:unsigned int [3] Size:0 Offset:0 #Elements:1
SimplePoolFile1...  DEBUG --->Reading Shape[6 , BEE2BECF-A936-4078-9FDD-AD703C9ADF9F]: [1 Column(s)]
SimplePoolFile1...  DEBUG ---->[0]:xAOD::FileMetaDataAuxInfo_v1 Typ:xAOD::FileMetaDataAuxInfo_v1 [21] Size:0 Offset:0 #Elements:1
SimplePoolFile1...  DEBUG --->Reading Shape[7 , 11DF1B8C-0DEE-4687-80D7-E74B520ACBB4]: [1 Column(s)]
SimplePoolFile1...  DEBUG ---->[0]:EventStreamInfo_p3 Typ:EventStreamInfo_p3 [21] Size:0 Offset:0 #Elements:1
SimplePoolFile1...  DEBUG --->Reading Shape[8 , C87E3828-4A7A-480A-95DE-0339539F6A0F]: [1 Column(s)]
SimplePoolFile1...  DEBUG ---->[0]:xAOD::FileMetaData_v1 Typ:xAOD::FileMetaData_v1 [21] Size:0 Offset:0 #Elements:1
SimplePoolFile1...  DEBUG --->Reading Shape[9 , 0EFE2D2C-9E78-441D-9A87-9EE2B908AC81]: [1 Column(s)]
SimplePoolFile1...  DEBUG ---->[0]:xAOD::EventFormat_v1 Typ:xAOD::EventFormat_v1 [21] Size:0 Offset:0 #Elements:1
SimplePoolFile1...  DEBUG --->Reading Shape[10 , 6C2DE6DF-6D52-43F6-B435-9F29812F40C0]: [1 Column(s)]
SimplePoolFile1...  DEBUG ---->[0]:IOVMetaDataContainer_p1 Typ:IOVMetaDataContainer_p1 [21] Size:0 Offset:0 #Elements:1
##Shapes            DEBUG No objects passing selection criteria... Container has 11 Entries in total.
SimplePoolFile1...  DEBUG --> Access   DbContainer  READ      [ROOT_All] ##Links
##Links             DEBUG Opening
##Links             DEBUG    attributes# = 1
##Links             DEBUG Opened container ##Links of type ROOT_Tree
SimplePoolFile1...  DEBUG --->Reading Assoc:F2313678-C96A-964F-89E8-08BAB39F2DA7/##Params [200]  (2 , ffffffffffffffff)
SimplePoolFile1...  DEBUG ---->ClassID:DA8F479C-09BC-49D4-94BC-99D025A23A3B
SimplePoolFile1...  DEBUG --->Reading Assoc:F2313678-C96A-964F-89E8-08BAB39F2DA7/CollectionTree(EventInfo_p4/McEventInfo) [203]  (3 , ffffffffffffffff)
SimplePoolFile1...  DEBUG ---->ClassID:C634FDB6-CC4B-4BA2-B8F9-A84BE6A786C7
SimplePoolFile1...  DEBUG --->Reading Assoc:F2313678-C96A-964F-89E8-08BAB39F2DA7/CollectionTree(ExampleHitContainer_p1/MyHits) [203]  (4 , ffffffffffffffff)
SimplePoolFile1...  DEBUG ---->ClassID:6BB89FA1-EB62-4641-97CA-3F8DB6588053
SimplePoolFile1...  DEBUG --->Reading Assoc:F2313678-C96A-964F-89E8-08BAB39F2DA7/POOLContainer(DataHeader) [203]  (5 , ffffffffffffffff)
SimplePoolFile1...  DEBUG ---->ClassID:4DDBD295-EFCE-472A-9EC8-15CD35A9EB8D
SimplePoolFile1...  DEBUG --->Reading Assoc:F2313678-C96A-964F-89E8-08BAB39F2DA7/POOLContainerForm(DataHeaderForm) [203]  (6 , ffffffffffffffff)
SimplePoolFile1...  DEBUG ---->ClassID:7BE56CEF-C866-4BEE-9348-A5F34B5F1DAD
SimplePoolFile1...  DEBUG --->Reading Assoc:F2313678-C96A-964F-89E8-08BAB39F2DA7/POOLCollectionTree(Token) [202]  (7 , ffffffffffffffff)
SimplePoolFile1...  DEBUG ---->ClassID:E013D4B1-CA9C-4E3C-9BE2-8691BBAFCB9A
SimplePoolFile1...  DEBUG --->Reading Assoc:F2313678-C96A-964F-89E8-08BAB39F2DA7/POOLCollectionTree(RunNumber) [202]  (8 , ffffffffffffffff)
SimplePoolFile1...  DEBUG ---->ClassID:BBACA313-D7B0-3A4C-9161-089CACF4B1CC
SimplePoolFile1...  DEBUG --->Reading Assoc:F2313678-C96A-964F-89E8-08BAB39F2DA7/POOLCollectionTree(EventNumber) [202]  (9 , ffffffffffffffff)
SimplePoolFile1...  DEBUG ---->ClassID:BBACA313-D7B0-3A4C-9161-089CACF4B1CC
SimplePoolFile1...  DEBUG --->Reading Assoc:F2313678-C96A-964F-89E8-08BAB39F2DA7/POOLCollectionTree(MagicNumber) [202]  (a , ffffffffffffffff)
SimplePoolFile1...  DEBUG ---->ClassID:BBACA313-D7B0-3A4C-9161-089CACF4B1CC
SimplePoolFile1...  DEBUG --->Reading Assoc:F2313678-C96A-964F-89E8-08BAB39F2DA7/MetaData(xAOD::FileMetaDataAuxInfo_v1/FileMetaDataAux.) [203]  (b , ffffffffffffffff)
SimplePoolFile1...  DEBUG ---->ClassID:BEE2BECF-A936-4078-9FDD-AD703C9ADF9F
SimplePoolFile1...  DEBUG --->Reading Assoc:F2313678-C96A-964F-89E8-08BAB39F2DA7/MetaData(EventStreamInfo_p3/Stream1) [203]  (c , ffffffffffffffff)
SimplePoolFile1...  DEBUG ---->ClassID:11DF1B8C-0DEE-4687-80D7-E74B520ACBB4
SimplePoolFile1...  DEBUG --->Reading Assoc:F2313678-C96A-964F-89E8-08BAB39F2DA7/MetaData(xAOD::FileMetaData_v1/FileMetaData) [203]  (d , ffffffffffffffff)
SimplePoolFile1...  DEBUG ---->ClassID:C87E3828-4A7A-480A-95DE-0339539F6A0F
SimplePoolFile1...  DEBUG --->Reading Assoc:F2313678-C96A-964F-89E8-08BAB39F2DA7/MetaData(xAOD::EventFormat_v1/EventFormatStream1) [203]  (e , ffffffffffffffff)
SimplePoolFile1...  DEBUG ---->ClassID:0EFE2D2C-9E78-441D-9A87-9EE2B908AC81
SimplePoolFile1...  DEBUG --->Reading Assoc:F2313678-C96A-964F-89E8-08BAB39F2DA7/MetaData(IOVMetaDataContainer_p1//TagInfo) [203]  (f , ffffffffffffffff)
SimplePoolFile1...  DEBUG ---->ClassID:6C2DE6DF-6D52-43F6-B435-9F29812F40C0
SimplePoolFile1...  DEBUG --->Reading Assoc:F2313678-C96A-964F-89E8-08BAB39F2DA7/MetaDataHdr(DataHeader) [203]  (10 , ffffffffffffffff)
SimplePoolFile1...  DEBUG ---->ClassID:4DDBD295-EFCE-472A-9EC8-15CD35A9EB8D
SimplePoolFile1...  DEBUG --->Reading Assoc:F2313678-C96A-964F-89E8-08BAB39F2DA7/MetaDataHdrForm(DataHeaderForm) [203]  (11 , ffffffffffffffff)
SimplePoolFile1...  DEBUG ---->ClassID:7BE56CEF-C866-4BEE-9348-A5F34B5F1DAD
##Links             DEBUG No objects passing selection criteria... Container has 16 Entries in total.
SimplePoolFile1...  DEBUG --> Access   DbContainer  READ      [ROOT_All] ##Params
##Params            DEBUG Opening
##Params            DEBUG    attributes# = 1
##Params            DEBUG Opened container ##Params of type ROOT_Tree
SimplePoolFile1...  DEBUG --->Reading Param:FID=[F2313678-C96A-964F-89E8-08BAB39F2DA7]
SimplePoolFile1...  DEBUG --->Reading Param:PFN=[SimplePoolFile1.root]
SimplePoolFile1...  DEBUG --->Reading Param:POOL_VSN=[1.1]
SimplePoolFile1...  DEBUG --->Reading Param:FORMAT_VSN=[2.0]
##Params            DEBUG No objects passing selection criteria... Container has 4 Entries in total.
SimplePoolFile1...  DEBUG --> Access   DbContainer  READ      [ROOT_TreeIndex] MetaDataHdr(DataHeader)
MetaDataHdr(Dat...  DEBUG Opening
MetaDataHdr(Dat...  DEBUG    attributes# = 1
MetaDataHdr(Dat...  DEBUG Branch container 'DataHeader'
MetaDataHdr(Dat...  DEBUG Opened container MetaDataHdr(DataHeader) of type ROOT_Tree
SimplePoolFile1...  DEBUG --> Access   DbContainer  READ      [ROOT_TreeIndex] MetaDataHdrForm(DataHeaderForm)
MetaDataHdrForm...  DEBUG Opening
MetaDataHdrForm...  DEBUG    attributes# = 1
MetaDataHdrForm...  DEBUG Branch container 'DataHeaderForm'
MetaDataHdrForm...  DEBUG Opened container MetaDataHdrForm(DataHeaderForm) of type ROOT_Tree
SimplePoolFile1...  DEBUG --> Access   DbContainer  READ      [ROOT_TreeIndex] MetaData(IOVMetaDataContainer_p1//TagInfo)
MetaData(IOVMet...  DEBUG Opening
MetaData(IOVMet...  DEBUG    attributes# = 1
MetaData(IOVMet...  DEBUG Branch container 'IOVMetaDataContainer_p1__TagInfo'
MetaData(IOVMet...  DEBUG Opened container MetaData(IOVMetaDataContainer_p1//TagInfo) of type ROOT_Tree
AthenaPoolAddre...  DEBUG Cannot retrieve DataHeader from DetectorStore.
EventInfoCnvAlg...   INFO Beam spot information not available
EventInfoCnvAlg...   INFO Will not fill beam spot information into xAOD::EventInfo
Stream1             DEBUG In initialize 
Stream1             DEBUG Found IDecisionSvc.
DecisionSvc          INFO Inserting stream: Stream1 with no Algs
Stream1             DEBUG End initialize 
Stream1             DEBUG In initialize
Stream1             DEBUG Found StoreGateSvc store.
Stream1             DEBUG Found MetaDataStore store.
Stream1.Stream1...   INFO Initializing Stream1.Stream1Tool
Stream1.FileMet...  DEBUG Creating new xAOD::FileMetaData object to fill
Stream1              INFO Data output: SimplePoolReplica1.root
Stream1              INFO ../O reinitialization...
Stream1             DEBUG End initialize
Stream1             DEBUG Registering all Tools in ToolHandleArray HelperTools
Stream1             DEBUG Adding private ToolHandle tool Stream1.Stream1_MakeEventStreamInfo (MakeEventStreamInfo)
Stream1             DEBUG Adding private ToolHandle tool Stream1.Stream1_MakeEventFormat (xAODMaker::EventFormatStreamHelperTool)
Stream1             DEBUG Adding private ToolHandle tool Stream1.FileMetaDataCreatorTool (xAODMaker::FileMetaDataCreatorTool)
Stream1             DEBUG Adding private ToolHandle tool Stream1.Stream1Tool (AthenaOutputStreamTool)
  + INPUT   ( 'AthenaAttributeList' , 'StoreGateSvc+SimpleTag' ) 
  + OUTPUT  ( 'DataHeader' , 'StoreGateSvc+Stream1' ) 
  + OUTPUT  ( 'SG::CompressionInfo' , 'StoreGateSvc+CompressionInfo_Stream1' ) 
  + OUTPUT  ( 'SG::SelectionVetoes' , 'StoreGateSvc+SelectionVetoes_Stream1' ) 
AthenaEventLoopMgr   INFO Setup EventSelector service EventSelector
ApplicationMgr       INFO Application Manager Initialized successfully
EventSelector       DEBUG Try item: "SimplePoolFile1.root" from the collection list.
PoolSvc             DEBUG createCollection() type=RootCollection, connection=PFN:SimplePoolFile1.root, name=SimplePoolFile1.root, contextID=0
ApplicationMgr       INFO Application Manager Started successfully
RootDatabase.se...  DEBUG Request tree cache 
RootDatabase.se...  DEBUG File name SimplePoolFile1.root
RootDatabase.se...  DEBUG Got tree CollectionTree read entry -1
RootDatabase.se...  DEBUG Using Tree cache. Size: -1 Nevents to learn with: -1
EventSelector       DEBUG Get AttributeList from the collection
EventSelector       DEBUG AttributeList size 3
EventSelector       DEBUG record AthenaAttribute, name = Token = [DB=F2313678-C96A-964F-89E8-08BAB39F2DA7][CNT=POOLContainer(DataHeader)][CLID=4DDBD295-EFCE-472A-9EC8-15CD35A9EB8D][TECH=00000203][OID=00000005-00000000].
EventSelector       DEBUG record AthenaAttribute, name = eventRef = [DB=F2313678-C96A-964F-89E8-08BAB39F2DA7][CNT=POOLContainer(DataHeader)][CLID=4DDBD295-EFCE-472A-9EC8-15CD35A9EB8D][TECH=00000203][OID=00000005-00000000].
EventSelector       DEBUG found AthenaAttribute, name = eventRef = [DB=F2313678-C96A-964F-89E8-08BAB39F2DA7][CNT=POOLContainer(DataHeader)][CLID=4DDBD295-EFCE-472A-9EC8-15CD35A9EB8D][TECH=00000203][OID=00000005-00000000]
SimplePoolFile1...  DEBUG --> Access   DbContainer  READ      [ROOT_TreeIndex] POOLContainer(DataHeader)
POOLContainer(D...  DEBUG Opening
POOLContainer(D...  DEBUG    attributes# = 1
POOLContainer(D...  DEBUG Branch container 'DataHeader'
POOLContainer(D...  DEBUG Opened container POOLContainer(DataHeader) of type ROOT_Tree
SimplePoolFile1...  DEBUG --> Access   DbContainer  READ      [ROOT_TreeIndex] POOLContainerForm(DataHeaderForm)
POOLContainerFo...  DEBUG Opening
POOLContainerFo...  DEBUG    attributes# = 1
POOLContainerFo...  DEBUG Branch container 'DataHeaderForm'
POOLContainerFo...  DEBUG Opened container POOLContainerForm(DataHeaderForm) of type ROOT_Tree
AthenaPoolAddre...  DEBUG The current Event contains: 3 objects
AthenaPoolAddre...  DEBUG loadAddresses: DataObject address, clid = 2101, name = McEventInfo
AthenaPoolAddre...  DEBUG loadAddresses: DataObject address, clid = 9102, name = MyHits
SimplePoolFile1...  DEBUG --> Access   DbContainer  READ      [ROOT_TreeIndex] CollectionTree(EventInfo_p4/McEventInfo)
CollectionTree(...  DEBUG Opening
CollectionTree(...  DEBUG    attributes# = 1
CollectionTree(...  DEBUG Branch container 'EventInfo_p4_McEventInfo'
CollectionTree(...  DEBUG Opened container CollectionTree(EventInfo_p4/McEventInfo) of type ROOT_Tree
AthenaEventLoopMgr   INFO   ===>>>  start of run 1    <<<===
IOVDbSvc             INFO Only 5 POOL conditions files will be open at once
IOVDbSvc             INFO Initialised with 1 connections and 0 folders
IOVDbSvc             INFO Service IOVDbSvc initialised successfully
AthenaEventLoopMgr   INFO   ===>>>  start processing event #1, run #1 0 events processed so far  <<<===
Stream1             DEBUG addItemObjects(2101,"*") called
Stream1             DEBUG            Key:*
Stream1             DEBUG      Comp Attr 0 with 7 mantissa bits.
Stream1             DEBUG      Comp Attr 0 with 15 mantissa bits.
Stream1             DEBUG  Added object 2101,"McEventInfo"
Stream1             DEBUG addItemObjects(9102,"MyHits") called
Stream1             DEBUG            Key:MyHits
Stream1             DEBUG      Comp Attr 0 with 7 mantissa bits.
Stream1             DEBUG      Comp Attr 0 with 15 mantissa bits.
SimplePoolFile1...  DEBUG --> Access   DbContainer  READ      [ROOT_TreeIndex] CollectionTree(ExampleHitContainer_p1/MyHits)
CollectionTree(...  DEBUG Opening
CollectionTree(...  DEBUG    attributes# = 1
CollectionTree(...  DEBUG Branch container 'ExampleHitContainer_p1_MyHits'
CollectionTree(...  DEBUG Opened container CollectionTree(ExampleHitContainer_p1/MyHits) of type ROOT_Tree
Stream1             DEBUG  Added object 9102,"MyHits"
Stream1             DEBUG  Collected objects:
Stream1             DEBUG  Object/count: EventInfo_McEventInfo, 1
Stream1             DEBUG  Object/count: ExampleHitContainer_MyHits, 1
SimplePoolRepli...  DEBUG --> Access   DbContainer  CREATE    [ROOT_All] ##Shapes
##Shapes            DEBUG Opening
##Shapes            DEBUG    attributes# = 1
##Shapes            DEBUG Opened container ##Shapes of type ROOT_Tree
##Shapes            DEBUG No objects passing selection criteria... Container has 0 Entries in total.
SimplePoolRepli...  DEBUG --> Access   DbContainer  CREATE    [ROOT_All] ##Links
##Links             DEBUG Opening
##Links             DEBUG    attributes# = 1
##Links             DEBUG Opened container ##Links of type ROOT_Tree
##Links             DEBUG No objects passing selection criteria... Container has 0 Entries in total.
SimplePoolRepli...  DEBUG --> Access   DbContainer  CREATE    [ROOT_All] ##Params
##Params            DEBUG Opening
##Params            DEBUG    attributes# = 1
##Params            DEBUG Opened container ##Params of type ROOT_Tree
SimplePoolRepli...  DEBUG --->Adding Assoc :095498FF-E805-B142-9948-BD2D4AC79975/##Params [200]  (2 , ffffffffffffffff)
SimplePoolRepli...  DEBUG ---->ClassID:DA8F479C-09BC-49D4-94BC-99D025A23A3B
##Params            DEBUG No objects passing selection criteria... Container has 0 Entries in total.
Stream1             DEBUG connectOutput done for SimplePoolReplica1.root
SimplePoolRepli...  DEBUG --> Access   DbContainer  CREA/UPDA [ROOT_TreeIndex] CollectionTree(EventInfo_p4/McEventInfo)
CollectionTree(...  DEBUG Opening
CollectionTree(...  DEBUG    attributes# = 1
CollectionTree(...  DEBUG Branch container 'EventInfo_p4_McEventInfo'
CollectionTree(...  DEBUG Opened container CollectionTree(EventInfo_p4/McEventInfo) of type ROOT_Tree
SimplePoolRepli...  DEBUG --->Adding Assoc :095498FF-E805-B142-9948-BD2D4AC79975/CollectionTree(EventInfo_p4/McEventInfo) [203]  (3 , ffffffffffffffff)
SimplePoolRepli...  DEBUG ---->ClassID:C634FDB6-CC4B-4BA2-B8F9-A84BE6A786C7
SimplePoolRepli...  DEBUG --->Adding Shape[0 , C634FDB6-CC4B-4BA2-B8F9-A84BE6A786C7]:  [1 Column(s)] 
SimplePoolRepli...  DEBUG ---->Class:EventInfo_p4
SimplePoolRepli...  DEBUG ---->[0]:EventInfo_p4 Typ:EventInfo_p4 [21] Size:0 Offset:0 #Elements:1
SimplePoolRepli...  DEBUG --> Access   DbContainer  CREA/UPDA [ROOT_TreeIndex] CollectionTree(ExampleHitContainer_p1/MyHits)
CollectionTree(...  DEBUG Opening
CollectionTree(...  DEBUG    attributes# = 1
CollectionTree(...  DEBUG Branch container 'ExampleHitContainer_p1_MyHits'
CollectionTree(...  DEBUG Opened container CollectionTree(ExampleHitContainer_p1/MyHits) of type ROOT_Tree
SimplePoolRepli...  DEBUG --->Adding Assoc :095498FF-E805-B142-9948-BD2D4AC79975/CollectionTree(ExampleHitContainer_p1/MyHits) [203]  (4 , ffffffffffffffff)
SimplePoolRepli...  DEBUG ---->ClassID:6BB89FA1-EB62-4641-97CA-3F8DB6588053
SimplePoolRepli...  DEBUG --->Adding Shape[1 , 6BB89FA1-EB62-4641-97CA-3F8DB6588053]:  [1 Column(s)] 
SimplePoolRepli...  DEBUG ---->Class:ExampleHitContainer_p1
SimplePoolRepli...  DEBUG ---->[0]:ExampleHitContainer_p1 Typ:ExampleHitContainer_p1 [21] Size:0 Offset:0 #Elements:1
SimplePoolRepli...  DEBUG --> Access   DbContainer  CREA/UPDA [ROOT_TreeIndex] POOLContainer(DataHeader)
POOLContainer(D...  DEBUG Opening
POOLContainer(D...  DEBUG    attributes# = 1
POOLContainer(D...  DEBUG Branch container 'DataHeader'
POOLContainer(D...  DEBUG Opened container POOLContainer(DataHeader) of type ROOT_Tree
SimplePoolRepli...  DEBUG --->Adding Assoc :095498FF-E805-B142-9948-BD2D4AC79975/POOLContainer(DataHeader) [203]  (5 , ffffffffffffffff)
SimplePoolRepli...  DEBUG ---->ClassID:4DDBD295-EFCE-472A-9EC8-15CD35A9EB8D
SimplePoolRepli...  DEBUG --->Adding Shape[2 , 4DDBD295-EFCE-472A-9EC8-15CD35A9EB8D]:  [1 Column(s)] 
SimplePoolRepli...  DEBUG ---->Class:DataHeader_p6
SimplePoolRepli...  DEBUG ---->[0]:DataHeader_p6 Typ:DataHeader_p6 [21] Size:0 Offset:0 #Elements:1
SimplePoolRepli...  DEBUG --> Access   DbContainer  CREA/UPDA [ROOT_TreeIndex] POOLContainerForm(DataHeaderForm)
POOLContainerFo...  DEBUG Opening
POOLContainerFo...  DEBUG    attributes# = 1
POOLContainerFo...  DEBUG Branch container 'DataHeaderForm'
POOLContainerFo...  DEBUG Opened container POOLContainerForm(DataHeaderForm) of type ROOT_Tree
SimplePoolRepli...  DEBUG --->Adding Assoc :095498FF-E805-B142-9948-BD2D4AC79975/POOLContainerForm(DataHeaderForm) [203]  (6 , ffffffffffffffff)
SimplePoolRepli...  DEBUG ---->ClassID:7BE56CEF-C866-4BEE-9348-A5F34B5F1DAD
SimplePoolRepli...  DEBUG --->Adding Shape[3 , 7BE56CEF-C866-4BEE-9348-A5F34B5F1DAD]:  [1 Column(s)] 
SimplePoolRepli...  DEBUG ---->Class:DataHeaderForm_p6
SimplePoolRepli...  DEBUG ---->[0]:DataHeaderForm_p6 Typ:DataHeaderForm_p6 [21] Size:0 Offset:0 #Elements:1
SimplePoolRepli...  DEBUG --> Access   DbContainer  CREA/UPDA [ROOT_Tree] POOLCollectionTree(Token)
POOLCollectionT...  DEBUG Opening
POOLCollectionT...  DEBUG    attributes# = 1
POOLCollectionT...  DEBUG Branch container 'Token'
POOLCollectionT...  DEBUG Opened container POOLCollectionTree(Token) of type ROOT_Tree
SimplePoolRepli...  DEBUG --->Adding Assoc :095498FF-E805-B142-9948-BD2D4AC79975/POOLCollectionTree(Token) [202]  (7 , ffffffffffffffff)
SimplePoolRepli...  DEBUG ---->ClassID:E013D4B1-CA9C-4E3C-9BE2-8691BBAFCB9A
SimplePoolRepli...  DEBUG --->Adding Shape[4 , E013D4B1-CA9C-4E3C-9BE2-8691BBAFCB9A]:  [1 Column(s)] 
SimplePoolRepli...  DEBUG ---->Class:Token
SimplePoolRepli...  DEBUG ---->[0]:Token Typ:Token [18] Size:0 Offset:0 #Elements:1
StorageSvc           INFO Building shape according to reflection information using shape ID for:
StorageSvc           INFO bool [13FF06C5-AB4B-6EDD-68AB-3E6350E95305]
SimplePoolRepli...  DEBUG --> Access   DbContainer  CREA/UPDA [ROOT_Tree] POOLCollectionTree(IsSimulation)
POOLCollectionT...  DEBUG Opening
POOLCollectionT...  DEBUG    attributes# = 1
POOLCollectionT...  DEBUG Branch container 'IsSimulation'
POOLCollectionT...  DEBUG Opened container POOLCollectionTree(IsSimulation) of type ROOT_Tree
SimplePoolRepli...  DEBUG --->Adding Assoc :095498FF-E805-B142-9948-BD2D4AC79975/POOLCollectionTree(IsSimulation) [202]  (8 , ffffffffffffffff)
SimplePoolRepli...  DEBUG ---->ClassID:13FF06C5-AB4B-6EDD-68AB-3E6350E95305
SimplePoolRepli...  DEBUG --->Adding Shape[5 , 13FF06C5-AB4B-6EDD-68AB-3E6350E95305]:  [1 Column(s)] 
SimplePoolRepli...  DEBUG ---->Class:bool
SimplePoolRepli...  DEBUG ---->[0]:bool Typ:bool [9] Size:0 Offset:0 #Elements:1
SimplePoolRepli...  DEBUG --> Access   DbContainer  CREA/UPDA [ROOT_Tree] POOLCollectionTree(IsCalibration)
POOLCollectionT...  DEBUG Opening
POOLCollectionT...  DEBUG    attributes# = 1
POOLCollectionT...  DEBUG Branch container 'IsCalibration'
POOLCollectionT...  DEBUG Opened container POOLCollectionTree(IsCalibration) of type ROOT_Tree
SimplePoolRepli...  DEBUG --->Adding Assoc :095498FF-E805-B142-9948-BD2D4AC79975/POOLCollectionTree(IsCalibration) [202]  (9 , ffffffffffffffff)
SimplePoolRepli...  DEBUG ---->ClassID:13FF06C5-AB4B-6EDD-68AB-3E6350E95305
SimplePoolRepli...  DEBUG --> Access   DbContainer  CREA/UPDA [ROOT_Tree] POOLCollectionTree(IsTestBeam)
POOLCollectionT...  DEBUG Opening
POOLCollectionT...  DEBUG    attributes# = 1
POOLCollectionT...  DEBUG Branch container 'IsTestBeam'
POOLCollectionT...  DEBUG Opened container POOLCollectionTree(IsTestBeam) of type ROOT_Tree
SimplePoolRepli...  DEBUG --->Adding Assoc :095498FF-E805-B142-9948-BD2D4AC79975/POOLCollectionTree(IsTestBeam) [202]  (a , ffffffffffffffff)
SimplePoolRepli...  DEBUG ---->ClassID:13FF06C5-AB4B-6EDD-68AB-3E6350E95305
SimplePoolRepli...  DEBUG --> Access   DbContainer  CREA/UPDA [ROOT_Tree] POOLCollectionTree(McChannel)
POOLCollectionT...  DEBUG Opening
POOLCollectionT...  DEBUG    attributes# = 1
POOLCollectionT...  DEBUG Branch container 'McChannel'
POOLCollectionT...  DEBUG Opened container POOLCollectionTree(McChannel) of type ROOT_Tree
SimplePoolRepli...  DEBUG --->Adding Assoc :095498FF-E805-B142-9948-BD2D4AC79975/POOLCollectionTree(McChannel) [202]  (b , ffffffffffffffff)
SimplePoolRepli...  DEBUG ---->ClassID:BBACA313-D7B0-3A4C-9161-089CACF4B1CC
SimplePoolRepli...  DEBUG --->Adding Shape[6 , BBACA313-D7B0-3A4C-9161-089CACF4B1CC]:  [1 Column(s)] 
SimplePoolRepli...  DEBUG ---->Class:unsigned int
SimplePoolRepli...  DEBUG ---->[0]:unsigned int Typ:unsigned int [3] Size:0 Offset:0 #Elements:1
SimplePoolRepli...  DEBUG --> Access   DbContainer  CREA/UPDA [ROOT_Tree] POOLCollectionTree(RunNumber)
POOLCollectionT...  DEBUG Opening
POOLCollectionT...  DEBUG    attributes# = 1
POOLCollectionT...  DEBUG Branch container 'RunNumber'
POOLCollectionT...  DEBUG Opened container POOLCollectionTree(RunNumber) of type ROOT_Tree
SimplePoolRepli...  DEBUG --->Adding Assoc :095498FF-E805-B142-9948-BD2D4AC79975/POOLCollectionTree(RunNumber) [202]  (c , ffffffffffffffff)
SimplePoolRepli...  DEBUG ---->ClassID:BBACA313-D7B0-3A4C-9161-089CACF4B1CC
StorageSvc           INFO Building shape according to reflection information using shape ID for:
StorageSvc           INFO unsigned long long [388BE2E0-4452-7BB9-2563-DA3365C64623]
SimplePoolRepli...  DEBUG --> Access   DbContainer  CREA/UPDA [ROOT_Tree] POOLCollectionTree(EventNumber)
POOLCollectionT...  DEBUG Opening
POOLCollectionT...  DEBUG    attributes# = 1
POOLCollectionT...  DEBUG Branch container 'EventNumber'
POOLCollectionT...  DEBUG Opened container POOLCollectionTree(EventNumber) of type ROOT_Tree
SimplePoolRepli...  DEBUG --->Adding Assoc :095498FF-E805-B142-9948-BD2D4AC79975/POOLCollectionTree(EventNumber) [202]  (d , ffffffffffffffff)
SimplePoolRepli...  DEBUG ---->ClassID:388BE2E0-4452-7BB9-2563-DA3365C64623
SimplePoolRepli...  DEBUG --->Adding Shape[7 , 388BE2E0-4452-7BB9-2563-DA3365C64623]:  [1 Column(s)] 
SimplePoolRepli...  DEBUG ---->Class:unsigned long long
SimplePoolRepli...  DEBUG ---->[0]:unsigned long long Typ:unsigned long long [23] Size:0 Offset:0 #Elements:1
SimplePoolRepli...  DEBUG --> Access   DbContainer  CREA/UPDA [ROOT_Tree] POOLCollectionTree(LumiBlockN)
POOLCollectionT...  DEBUG Opening
POOLCollectionT...  DEBUG    attributes# = 1
POOLCollectionT...  DEBUG Branch container 'LumiBlockN'
POOLCollectionT...  DEBUG Opened container POOLCollectionTree(LumiBlockN) of type ROOT_Tree
SimplePoolRepli...  DEBUG --->Adding Assoc :095498FF-E805-B142-9948-BD2D4AC79975/POOLCollectionTree(LumiBlockN) [202]  (e , ffffffffffffffff)
SimplePoolRepli...  DEBUG ---->ClassID:BBACA313-D7B0-3A4C-9161-089CACF4B1CC
SimplePoolRepli...  DEBUG --> Access   DbContainer  CREA/UPDA [ROOT_Tree] POOLCollectionTree(ConditionsRun)
POOLCollectionT...  DEBUG Opening
POOLCollectionT...  DEBUG    attributes# = 1
POOLCollectionT...  DEBUG Branch container 'ConditionsRun'
POOLCollectionT...  DEBUG Opened container POOLCollectionTree(ConditionsRun) of type ROOT_Tree
SimplePoolRepli...  DEBUG --->Adding Assoc :095498FF-E805-B142-9948-BD2D4AC79975/POOLCollectionTree(ConditionsRun) [202]  (f , ffffffffffffffff)
SimplePoolRepli...  DEBUG ---->ClassID:BBACA313-D7B0-3A4C-9161-089CACF4B1CC
SimplePoolRepli...  DEBUG --> Access   DbContainer  CREA/UPDA [ROOT_Tree] POOLCollectionTree(EventTime)
POOLCollectionT...  DEBUG Opening
POOLCollectionT...  DEBUG    attributes# = 1
POOLCollectionT...  DEBUG Branch container 'EventTime'
POOLCollectionT...  DEBUG Opened container POOLCollectionTree(EventTime) of type ROOT_Tree
SimplePoolRepli...  DEBUG --->Adding Assoc :095498FF-E805-B142-9948-BD2D4AC79975/POOLCollectionTree(EventTime) [202]  (10 , ffffffffffffffff)
SimplePoolRepli...  DEBUG ---->ClassID:BBACA313-D7B0-3A4C-9161-089CACF4B1CC
SimplePoolRepli...  DEBUG --> Access   DbContainer  CREA/UPDA [ROOT_Tree] POOLCollectionTree(EventTimeNanoSec)
POOLCollectionT...  DEBUG Opening
POOLCollectionT...  DEBUG    attributes# = 1
POOLCollectionT...  DEBUG Branch container 'EventTimeNanoSec'
POOLCollectionT...  DEBUG Opened container POOLCollectionTree(EventTimeNanoSec) of type ROOT_Tree
SimplePoolRepli...  DEBUG --->Adding Assoc :095498FF-E805-B142-9948-BD2D4AC79975/POOLCollectionTree(EventTimeNanoSec) [202]  (11 , ffffffffffffffff)
SimplePoolRepli...  DEBUG ---->ClassID:BBACA313-D7B0-3A4C-9161-089CACF4B1CC
SimplePoolRepli...  DEBUG --> Access   DbContainer  CREA/UPDA [ROOT_Tree] POOLCollectionTree(BunchId)
POOLCollectionT...  DEBUG Opening
POOLCollectionT...  DEBUG    attributes# = 1
POOLCollectionT...  DEBUG Branch container 'BunchId'
POOLCollectionT...  DEBUG Opened container POOLCollectionTree(BunchId) of type ROOT_Tree
SimplePoolRepli...  DEBUG --->Adding Assoc :095498FF-E805-B142-9948-BD2D4AC79975/POOLCollectionTree(BunchId) [202]  (12 , ffffffffffffffff)
SimplePoolRepli...  DEBUG ---->ClassID:BBACA313-D7B0-3A4C-9161-089CACF4B1CC
StorageSvc           INFO Building shape according to reflection information using shape ID for:
StorageSvc           INFO float [64DE6A54-6E0B-BCDF-8A08-6EF31347E768]
SimplePoolRepli...  DEBUG --> Access   DbContainer  CREA/UPDA [ROOT_Tree] POOLCollectionTree(EventWeight)
POOLCollectionT...  DEBUG Opening
POOLCollectionT...  DEBUG    attributes# = 1
POOLCollectionT...  DEBUG Branch container 'EventWeight'
POOLCollectionT...  DEBUG Opened container POOLCollectionTree(EventWeight) of type ROOT_Tree
SimplePoolRepli...  DEBUG --->Adding Assoc :095498FF-E805-B142-9948-BD2D4AC79975/POOLCollectionTree(EventWeight) [202]  (13 , ffffffffffffffff)
SimplePoolRepli...  DEBUG ---->ClassID:64DE6A54-6E0B-BCDF-8A08-6EF31347E768
SimplePoolRepli...  DEBUG --->Adding Shape[8 , 64DE6A54-6E0B-BCDF-8A08-6EF31347E768]:  [1 Column(s)] 
SimplePoolRepli...  DEBUG ---->Class:float
SimplePoolRepli...  DEBUG ---->[0]:float Typ:float [10] Size:0 Offset:0 #Elements:1
SimplePoolRepli...  DEBUG DB Action Commit
Stream1.FileMet...  DEBUG beam energy "" tag could not be converted to float
Stream1.FileMet...  DEBUG Failed to retrieve  'SimInfoKey':'/Simulation/Parameters' => cannot set: xAOD::FileMetaData::simFlavour, and xAOD::FileMetaData::isDataOverlay. Trying to get them from input metadata store.
Stream1.FileMet...  DEBUG set xAOD::FileMetaData::dataType to Stream1
Stream1.FileMet...  DEBUG retrieved existing list of runNumbers
Stream1.FileMet...  DEBUG added 1 to list of runNumbers
Stream1.FileMet...  DEBUG retrieved existing list of lumiBlocks
Stream1.FileMet...  DEBUG added 0 to list of lumiBlocks
Stream1.FileMet...  DEBUG Retrieved  'EventInfoKey':'EventInfo'
Stream1.FileMet...  DEBUG setting xAOD::FileMetaData::mcProcID to 0
AthenaEventLoopMgr   INFO   ===>>>  done processing event #1, run #1 1 events processed so far  <<<===
EventSelector       DEBUG Get AttributeList from the collection
EventSelector       DEBUG AttributeList size 3
EventSelector       DEBUG record AthenaAttribute, name = Token = [DB=F2313678-C96A-964F-89E8-08BAB39F2DA7][CNT=POOLContainer(DataHeader)][CLID=4DDBD295-EFCE-472A-9EC8-15CD35A9EB8D][TECH=00000203][OID=00000005-00000001].
EventSelector       DEBUG record AthenaAttribute, name = eventRef = [DB=F2313678-C96A-964F-89E8-08BAB39F2DA7][CNT=POOLContainer(DataHeader)][CLID=4DDBD295-EFCE-472A-9EC8-15CD35A9EB8D][TECH=00000203][OID=00000005-00000001].
EventSelector       DEBUG found AthenaAttribute, name = eventRef = [DB=F2313678-C96A-964F-89E8-08BAB39F2DA7][CNT=POOLContainer(DataHeader)][CLID=4DDBD295-EFCE-472A-9EC8-15CD35A9EB8D][TECH=00000203][OID=00000005-00000001]
AthenaPoolAddre...  DEBUG The current Event contains: 3 objects
AthenaPoolAddre...  DEBUG loadAddresses: DataObject address, clid = 2101, name = McEventInfo
AthenaPoolAddre...  DEBUG loadAddresses: DataObject address, clid = 9102, name = MyHits
AthenaEventLoopMgr   INFO   ===>>>  start processing event #2, run #1 1 events processed so far  <<<===
Stream1             DEBUG addItemObjects(2101,"*") called
Stream1             DEBUG            Key:*
Stream1             DEBUG      Comp Attr 0 with 7 mantissa bits.
Stream1             DEBUG      Comp Attr 0 with 15 mantissa bits.
Stream1             DEBUG  Added object 2101,"McEventInfo"
Stream1             DEBUG addItemObjects(9102,"MyHits") called
Stream1             DEBUG            Key:MyHits
Stream1             DEBUG      Comp Attr 0 with 7 mantissa bits.
Stream1             DEBUG      Comp Attr 0 with 15 mantissa bits.
Stream1             DEBUG  Added object 9102,"MyHits"
Stream1             DEBUG  Collected objects:
Stream1             DEBUG  Object/count: EventInfo_McEventInfo, 2
Stream1             DEBUG  Object/count: ExampleHitContainer_MyHits, 2
Stream1             DEBUG connectOutput done for SimplePoolReplica1.root
SimplePoolRepli...  DEBUG DB Action Commit
Stream1.FileMet...  DEBUG retrieved existing list of runNumbers
Stream1.FileMet...  DEBUG retrieved existing list of lumiBlocks
AthenaEventLoopMgr   INFO   ===>>>  done processing event #2, run #1 2 events processed so far  <<<===
EventSelector       DEBUG Get AttributeList from the collection
EventSelector       DEBUG AttributeList size 3
EventSelector       DEBUG record AthenaAttribute, name = Token = [DB=F2313678-C96A-964F-89E8-08BAB39F2DA7][CNT=POOLContainer(DataHeader)][CLID=4DDBD295-EFCE-472A-9EC8-15CD35A9EB8D][TECH=00000203][OID=00000005-00000002].
EventSelector       DEBUG record AthenaAttribute, name = eventRef = [DB=F2313678-C96A-964F-89E8-08BAB39F2DA7][CNT=POOLContainer(DataHeader)][CLID=4DDBD295-EFCE-472A-9EC8-15CD35A9EB8D][TECH=00000203][OID=00000005-00000002].
EventSelector       DEBUG found AthenaAttribute, name = eventRef = [DB=F2313678-C96A-964F-89E8-08BAB39F2DA7][CNT=POOLContainer(DataHeader)][CLID=4DDBD295-EFCE-472A-9EC8-15CD35A9EB8D][TECH=00000203][OID=00000005-00000002]
AthenaPoolAddre...  DEBUG The current Event contains: 3 objects
AthenaPoolAddre...  DEBUG loadAddresses: DataObject address, clid = 2101, name = McEventInfo
AthenaPoolAddre...  DEBUG loadAddresses: DataObject address, clid = 9102, name = MyHits
AthenaEventLoopMgr   INFO   ===>>>  start processing event #3, run #1 2 events processed so far  <<<===
Stream1             DEBUG addItemObjects(2101,"*") called
Stream1             DEBUG            Key:*
Stream1             DEBUG      Comp Attr 0 with 7 mantissa bits.
Stream1             DEBUG      Comp Attr 0 with 15 mantissa bits.
Stream1             DEBUG  Added object 2101,"McEventInfo"
Stream1             DEBUG addItemObjects(9102,"MyHits") called
Stream1             DEBUG            Key:MyHits
Stream1             DEBUG      Comp Attr 0 with 7 mantissa bits.
Stream1             DEBUG      Comp Attr 0 with 15 mantissa bits.
Stream1             DEBUG  Added object 9102,"MyHits"
Stream1             DEBUG  Collected objects:
Stream1             DEBUG  Object/count: EventInfo_McEventInfo, 3
Stream1             DEBUG  Object/count: ExampleHitContainer_MyHits, 3
Stream1             DEBUG connectOutput done for SimplePoolReplica1.root
SimplePoolRepli...  DEBUG DB Action Commit
Stream1.FileMet...  DEBUG retrieved existing list of runNumbers
Stream1.FileMet...  DEBUG retrieved existing list of lumiBlocks
AthenaEventLoopMgr   INFO   ===>>>  done processing event #3, run #1 3 events processed so far  <<<===
EventSelector       DEBUG Get AttributeList from the collection
EventSelector       DEBUG AttributeList size 3
EventSelector       DEBUG record AthenaAttribute, name = Token = [DB=F2313678-C96A-964F-89E8-08BAB39F2DA7][CNT=POOLContainer(DataHeader)][CLID=4DDBD295-EFCE-472A-9EC8-15CD35A9EB8D][TECH=00000203][OID=00000005-00000003].
EventSelector       DEBUG record AthenaAttribute, name = eventRef = [DB=F2313678-C96A-964F-89E8-08BAB39F2DA7][CNT=POOLContainer(DataHeader)][CLID=4DDBD295-EFCE-472A-9EC8-15CD35A9EB8D][TECH=00000203][OID=00000005-00000003].
EventSelector       DEBUG found AthenaAttribute, name = eventRef = [DB=F2313678-C96A-964F-89E8-08BAB39F2DA7][CNT=POOLContainer(DataHeader)][CLID=4DDBD295-EFCE-472A-9EC8-15CD35A9EB8D][TECH=00000203][OID=00000005-00000003]
AthenaPoolAddre...  DEBUG The current Event contains: 3 objects
AthenaPoolAddre...  DEBUG loadAddresses: DataObject address, clid = 2101, name = McEventInfo
AthenaPoolAddre...  DEBUG loadAddresses: DataObject address, clid = 9102, name = MyHits
AthenaEventLoopMgr   INFO   ===>>>  start processing event #4, run #1 3 events processed so far  <<<===
Stream1             DEBUG addItemObjects(2101,"*") called
Stream1             DEBUG            Key:*
Stream1             DEBUG      Comp Attr 0 with 7 mantissa bits.
Stream1             DEBUG      Comp Attr 0 with 15 mantissa bits.
Stream1             DEBUG  Added object 2101,"McEventInfo"
Stream1             DEBUG addItemObjects(9102,"MyHits") called
Stream1             DEBUG            Key:MyHits
Stream1             DEBUG      Comp Attr 0 with 7 mantissa bits.
Stream1             DEBUG      Comp Attr 0 with 15 mantissa bits.
Stream1             DEBUG  Added object 9102,"MyHits"
Stream1             DEBUG  Collected objects:
Stream1             DEBUG  Object/count: EventInfo_McEventInfo, 4
Stream1             DEBUG  Object/count: ExampleHitContainer_MyHits, 4
Stream1             DEBUG connectOutput done for SimplePoolReplica1.root
SimplePoolRepli...  DEBUG DB Action Commit
Stream1.FileMet...  DEBUG retrieved existing list of runNumbers
Stream1.FileMet...  DEBUG retrieved existing list of lumiBlocks
AthenaEventLoopMgr   INFO   ===>>>  done processing event #4, run #1 4 events processed so far  <<<===
EventSelector       DEBUG Get AttributeList from the collection
EventSelector       DEBUG AttributeList size 3
EventSelector       DEBUG record AthenaAttribute, name = Token = [DB=F2313678-C96A-964F-89E8-08BAB39F2DA7][CNT=POOLContainer(DataHeader)][CLID=4DDBD295-EFCE-472A-9EC8-15CD35A9EB8D][TECH=00000203][OID=00000005-00000004].
EventSelector       DEBUG record AthenaAttribute, name = eventRef = [DB=F2313678-C96A-964F-89E8-08BAB39F2DA7][CNT=POOLContainer(DataHeader)][CLID=4DDBD295-EFCE-472A-9EC8-15CD35A9EB8D][TECH=00000203][OID=00000005-00000004].
EventSelector       DEBUG found AthenaAttribute, name = eventRef = [DB=F2313678-C96A-964F-89E8-08BAB39F2DA7][CNT=POOLContainer(DataHeader)][CLID=4DDBD295-EFCE-472A-9EC8-15CD35A9EB8D][TECH=00000203][OID=00000005-00000004]
AthenaPoolAddre...  DEBUG The current Event contains: 3 objects
AthenaPoolAddre...  DEBUG loadAddresses: DataObject address, clid = 2101, name = McEventInfo
AthenaPoolAddre...  DEBUG loadAddresses: DataObject address, clid = 9102, name = MyHits
AthenaEventLoopMgr   INFO   ===>>>  start processing event #5, run #1 4 events processed so far  <<<===
Stream1             DEBUG addItemObjects(2101,"*") called
Stream1             DEBUG            Key:*
Stream1             DEBUG      Comp Attr 0 with 7 mantissa bits.
Stream1             DEBUG      Comp Attr 0 with 15 mantissa bits.
Stream1             DEBUG  Added object 2101,"McEventInfo"
Stream1             DEBUG addItemObjects(9102,"MyHits") called
Stream1             DEBUG            Key:MyHits
Stream1             DEBUG      Comp Attr 0 with 7 mantissa bits.
Stream1             DEBUG      Comp Attr 0 with 15 mantissa bits.
Stream1             DEBUG  Added object 9102,"MyHits"
Stream1             DEBUG  Collected objects:
Stream1             DEBUG  Object/count: EventInfo_McEventInfo, 5
Stream1             DEBUG  Object/count: ExampleHitContainer_MyHits, 5
Stream1             DEBUG connectOutput done for SimplePoolReplica1.root
SimplePoolRepli...  DEBUG DB Action Commit
Stream1.FileMet...  DEBUG retrieved existing list of runNumbers
Stream1.FileMet...  DEBUG retrieved existing list of lumiBlocks
AthenaEventLoopMgr   INFO   ===>>>  done processing event #5, run #1 5 events processed so far  <<<===
EventSelector       DEBUG Get AttributeList from the collection
EventSelector       DEBUG AttributeList size 3
EventSelector       DEBUG record AthenaAttribute, name = Token = [DB=F2313678-C96A-964F-89E8-08BAB39F2DA7][CNT=POOLContainer(DataHeader)][CLID=4DDBD295-EFCE-472A-9EC8-15CD35A9EB8D][TECH=00000203][OID=00000005-00000005].
EventSelector       DEBUG record AthenaAttribute, name = eventRef = [DB=F2313678-C96A-964F-89E8-08BAB39F2DA7][CNT=POOLContainer(DataHeader)][CLID=4DDBD295-EFCE-472A-9EC8-15CD35A9EB8D][TECH=00000203][OID=00000005-00000005].
EventSelector       DEBUG found AthenaAttribute, name = eventRef = [DB=F2313678-C96A-964F-89E8-08BAB39F2DA7][CNT=POOLContainer(DataHeader)][CLID=4DDBD295-EFCE-472A-9EC8-15CD35A9EB8D][TECH=00000203][OID=00000005-00000005]
AthenaPoolAddre...  DEBUG The current Event contains: 3 objects
AthenaPoolAddre...  DEBUG loadAddresses: DataObject address, clid = 2101, name = McEventInfo
AthenaPoolAddre...  DEBUG loadAddresses: DataObject address, clid = 9102, name = MyHits
AthenaEventLoopMgr   INFO   ===>>>  start processing event #6, run #1 5 events processed so far  <<<===
Stream1             DEBUG addItemObjects(2101,"*") called
Stream1             DEBUG            Key:*
Stream1             DEBUG      Comp Attr 0 with 7 mantissa bits.
Stream1             DEBUG      Comp Attr 0 with 15 mantissa bits.
Stream1             DEBUG  Added object 2101,"McEventInfo"
Stream1             DEBUG addItemObjects(9102,"MyHits") called
Stream1             DEBUG            Key:MyHits
Stream1             DEBUG      Comp Attr 0 with 7 mantissa bits.
Stream1             DEBUG      Comp Attr 0 with 15 mantissa bits.
Stream1             DEBUG  Added object 9102,"MyHits"
Stream1             DEBUG  Collected objects:
Stream1             DEBUG  Object/count: EventInfo_McEventInfo, 6
Stream1             DEBUG  Object/count: ExampleHitContainer_MyHits, 6
Stream1             DEBUG connectOutput done for SimplePoolReplica1.root
SimplePoolRepli...  DEBUG DB Action Commit
Stream1.FileMet...  DEBUG retrieved existing list of runNumbers
Stream1.FileMet...  DEBUG retrieved existing list of lumiBlocks
AthenaEventLoopMgr   INFO   ===>>>  done processing event #6, run #1 6 events processed so far  <<<===
EventSelector       DEBUG Get AttributeList from the collection
EventSelector       DEBUG AttributeList size 3
EventSelector       DEBUG record AthenaAttribute, name = Token = [DB=F2313678-C96A-964F-89E8-08BAB39F2DA7][CNT=POOLContainer(DataHeader)][CLID=4DDBD295-EFCE-472A-9EC8-15CD35A9EB8D][TECH=00000203][OID=00000005-00000006].
EventSelector       DEBUG record AthenaAttribute, name = eventRef = [DB=F2313678-C96A-964F-89E8-08BAB39F2DA7][CNT=POOLContainer(DataHeader)][CLID=4DDBD295-EFCE-472A-9EC8-15CD35A9EB8D][TECH=00000203][OID=00000005-00000006].
EventSelector       DEBUG found AthenaAttribute, name = eventRef = [DB=F2313678-C96A-964F-89E8-08BAB39F2DA7][CNT=POOLContainer(DataHeader)][CLID=4DDBD295-EFCE-472A-9EC8-15CD35A9EB8D][TECH=00000203][OID=00000005-00000006]
AthenaPoolAddre...  DEBUG The current Event contains: 3 objects
AthenaPoolAddre...  DEBUG loadAddresses: DataObject address, clid = 2101, name = McEventInfo
AthenaPoolAddre...  DEBUG loadAddresses: DataObject address, clid = 9102, name = MyHits
AthenaEventLoopMgr   INFO   ===>>>  start processing event #7, run #1 6 events processed so far  <<<===
Stream1             DEBUG addItemObjects(2101,"*") called
Stream1             DEBUG            Key:*
Stream1             DEBUG      Comp Attr 0 with 7 mantissa bits.
Stream1             DEBUG      Comp Attr 0 with 15 mantissa bits.
Stream1             DEBUG  Added object 2101,"McEventInfo"
Stream1             DEBUG addItemObjects(9102,"MyHits") called
Stream1             DEBUG            Key:MyHits
Stream1             DEBUG      Comp Attr 0 with 7 mantissa bits.
Stream1             DEBUG      Comp Attr 0 with 15 mantissa bits.
Stream1             DEBUG  Added object 9102,"MyHits"
Stream1             DEBUG  Collected objects:
Stream1             DEBUG  Object/count: EventInfo_McEventInfo, 7
Stream1             DEBUG  Object/count: ExampleHitContainer_MyHits, 7
Stream1             DEBUG connectOutput done for SimplePoolReplica1.root
SimplePoolRepli...  DEBUG DB Action Commit
Stream1.FileMet...  DEBUG retrieved existing list of runNumbers
Stream1.FileMet...  DEBUG retrieved existing list of lumiBlocks
AthenaEventLoopMgr   INFO   ===>>>  done processing event #7, run #1 7 events processed so far  <<<===
EventSelector       DEBUG Get AttributeList from the collection
EventSelector       DEBUG AttributeList size 3
EventSelector       DEBUG record AthenaAttribute, name = Token = [DB=F2313678-C96A-964F-89E8-08BAB39F2DA7][CNT=POOLContainer(DataHeader)][CLID=4DDBD295-EFCE-472A-9EC8-15CD35A9EB8D][TECH=00000203][OID=00000005-00000007].
EventSelector       DEBUG record AthenaAttribute, name = eventRef = [DB=F2313678-C96A-964F-89E8-08BAB39F2DA7][CNT=POOLContainer(DataHeader)][CLID=4DDBD295-EFCE-472A-9EC8-15CD35A9EB8D][TECH=00000203][OID=00000005-00000007].
EventSelector       DEBUG found AthenaAttribute, name = eventRef = [DB=F2313678-C96A-964F-89E8-08BAB39F2DA7][CNT=POOLContainer(DataHeader)][CLID=4DDBD295-EFCE-472A-9EC8-15CD35A9EB8D][TECH=00000203][OID=00000005-00000007]
AthenaPoolAddre...  DEBUG The current Event contains: 3 objects
AthenaPoolAddre...  DEBUG loadAddresses: DataObject address, clid = 2101, name = McEventInfo
AthenaPoolAddre...  DEBUG loadAddresses: DataObject address, clid = 9102, name = MyHits
AthenaEventLoopMgr   INFO   ===>>>  start processing event #8, run #1 7 events processed so far  <<<===
Stream1             DEBUG addItemObjects(2101,"*") called
Stream1             DEBUG            Key:*
Stream1             DEBUG      Comp Attr 0 with 7 mantissa bits.
Stream1             DEBUG      Comp Attr 0 with 15 mantissa bits.
Stream1             DEBUG  Added object 2101,"McEventInfo"
Stream1             DEBUG addItemObjects(9102,"MyHits") called
Stream1             DEBUG            Key:MyHits
Stream1             DEBUG      Comp Attr 0 with 7 mantissa bits.
Stream1             DEBUG      Comp Attr 0 with 15 mantissa bits.
Stream1             DEBUG  Added object 9102,"MyHits"
Stream1             DEBUG  Collected objects:
Stream1             DEBUG  Object/count: EventInfo_McEventInfo, 8
Stream1             DEBUG  Object/count: ExampleHitContainer_MyHits, 8
Stream1             DEBUG connectOutput done for SimplePoolReplica1.root
SimplePoolRepli...  DEBUG DB Action Commit
Stream1.FileMet...  DEBUG retrieved existing list of runNumbers
Stream1.FileMet...  DEBUG retrieved existing list of lumiBlocks
AthenaEventLoopMgr   INFO   ===>>>  done processing event #8, run #1 8 events processed so far  <<<===
EventSelector       DEBUG Get AttributeList from the collection
EventSelector       DEBUG AttributeList size 3
EventSelector       DEBUG record AthenaAttribute, name = Token = [DB=F2313678-C96A-964F-89E8-08BAB39F2DA7][CNT=POOLContainer(DataHeader)][CLID=4DDBD295-EFCE-472A-9EC8-15CD35A9EB8D][TECH=00000203][OID=00000005-00000008].
EventSelector       DEBUG record AthenaAttribute, name = eventRef = [DB=F2313678-C96A-964F-89E8-08BAB39F2DA7][CNT=POOLContainer(DataHeader)][CLID=4DDBD295-EFCE-472A-9EC8-15CD35A9EB8D][TECH=00000203][OID=00000005-00000008].
EventSelector       DEBUG found AthenaAttribute, name = eventRef = [DB=F2313678-C96A-964F-89E8-08BAB39F2DA7][CNT=POOLContainer(DataHeader)][CLID=4DDBD295-EFCE-472A-9EC8-15CD35A9EB8D][TECH=00000203][OID=00000005-00000008]
AthenaPoolAddre...  DEBUG The current Event contains: 3 objects
AthenaPoolAddre...  DEBUG loadAddresses: DataObject address, clid = 2101, name = McEventInfo
AthenaPoolAddre...  DEBUG loadAddresses: DataObject address, clid = 9102, name = MyHits
AthenaEventLoopMgr   INFO   ===>>>  start processing event #9, run #1 8 events processed so far  <<<===
Stream1             DEBUG addItemObjects(2101,"*") called
Stream1             DEBUG            Key:*
Stream1             DEBUG      Comp Attr 0 with 7 mantissa bits.
Stream1             DEBUG      Comp Attr 0 with 15 mantissa bits.
Stream1             DEBUG  Added object 2101,"McEventInfo"
Stream1             DEBUG addItemObjects(9102,"MyHits") called
Stream1             DEBUG            Key:MyHits
Stream1             DEBUG      Comp Attr 0 with 7 mantissa bits.
Stream1             DEBUG      Comp Attr 0 with 15 mantissa bits.
Stream1             DEBUG  Added object 9102,"MyHits"
Stream1             DEBUG  Collected objects:
Stream1             DEBUG  Object/count: EventInfo_McEventInfo, 9
Stream1             DEBUG  Object/count: ExampleHitContainer_MyHits, 9
Stream1             DEBUG connectOutput done for SimplePoolReplica1.root
SimplePoolRepli...  DEBUG DB Action Commit
Stream1.FileMet...  DEBUG retrieved existing list of runNumbers
Stream1.FileMet...  DEBUG retrieved existing list of lumiBlocks
AthenaEventLoopMgr   INFO   ===>>>  done processing event #9, run #1 9 events processed so far  <<<===
EventSelector       DEBUG Get AttributeList from the collection
EventSelector       DEBUG AttributeList size 3
EventSelector       DEBUG record AthenaAttribute, name = Token = [DB=F2313678-C96A-964F-89E8-08BAB39F2DA7][CNT=POOLContainer(DataHeader)][CLID=4DDBD295-EFCE-472A-9EC8-15CD35A9EB8D][TECH=00000203][OID=00000005-00000009].
EventSelector       DEBUG record AthenaAttribute, name = eventRef = [DB=F2313678-C96A-964F-89E8-08BAB39F2DA7][CNT=POOLContainer(DataHeader)][CLID=4DDBD295-EFCE-472A-9EC8-15CD35A9EB8D][TECH=00000203][OID=00000005-00000009].
EventSelector       DEBUG found AthenaAttribute, name = eventRef = [DB=F2313678-C96A-964F-89E8-08BAB39F2DA7][CNT=POOLContainer(DataHeader)][CLID=4DDBD295-EFCE-472A-9EC8-15CD35A9EB8D][TECH=00000203][OID=00000005-00000009]
AthenaPoolAddre...  DEBUG The current Event contains: 3 objects
AthenaPoolAddre...  DEBUG loadAddresses: DataObject address, clid = 2101, name = McEventInfo
AthenaPoolAddre...  DEBUG loadAddresses: DataObject address, clid = 9102, name = MyHits
AthenaEventLoopMgr   INFO   ===>>>  start processing event #10, run #1 9 events processed so far  <<<===
Stream1             DEBUG addItemObjects(2101,"*") called
Stream1             DEBUG            Key:*
Stream1             DEBUG      Comp Attr 0 with 7 mantissa bits.
Stream1             DEBUG      Comp Attr 0 with 15 mantissa bits.
Stream1             DEBUG  Added object 2101,"McEventInfo"
Stream1             DEBUG addItemObjects(9102,"MyHits") called
Stream1             DEBUG            Key:MyHits
Stream1             DEBUG      Comp Attr 0 with 7 mantissa bits.
Stream1             DEBUG      Comp Attr 0 with 15 mantissa bits.
Stream1             DEBUG  Added object 9102,"MyHits"
Stream1             DEBUG  Collected objects:
Stream1             DEBUG  Object/count: EventInfo_McEventInfo, 10
Stream1             DEBUG  Object/count: ExampleHitContainer_MyHits, 10
Stream1             DEBUG connectOutput done for SimplePoolReplica1.root
SimplePoolRepli...  DEBUG DB Action Commit
Stream1.FileMet...  DEBUG retrieved existing list of runNumbers
Stream1.FileMet...  DEBUG retrieved existing list of lumiBlocks
AthenaEventLoopMgr   INFO   ===>>>  done processing event #10, run #1 10 events processed so far  <<<===
EventSelector       DEBUG Get AttributeList from the collection
EventSelector       DEBUG AttributeList size 3
EventSelector       DEBUG record AthenaAttribute, name = Token = [DB=F2313678-C96A-964F-89E8-08BAB39F2DA7][CNT=POOLContainer(DataHeader)][CLID=4DDBD295-EFCE-472A-9EC8-15CD35A9EB8D][TECH=00000203][OID=00000005-0000000A].
EventSelector       DEBUG record AthenaAttribute, name = eventRef = [DB=F2313678-C96A-964F-89E8-08BAB39F2DA7][CNT=POOLContainer(DataHeader)][CLID=4DDBD295-EFCE-472A-9EC8-15CD35A9EB8D][TECH=00000203][OID=00000005-0000000A].
EventSelector       DEBUG found AthenaAttribute, name = eventRef = [DB=F2313678-C96A-964F-89E8-08BAB39F2DA7][CNT=POOLContainer(DataHeader)][CLID=4DDBD295-EFCE-472A-9EC8-15CD35A9EB8D][TECH=00000203][OID=00000005-0000000A]
AthenaPoolAddre...  DEBUG The current Event contains: 3 objects
AthenaPoolAddre...  DEBUG loadAddresses: DataObject address, clid = 2101, name = McEventInfo
AthenaPoolAddre...  DEBUG loadAddresses: DataObject address, clid = 9102, name = MyHits
AthenaEventLoopMgr   INFO   ===>>>  start processing event #11, run #1 10 events processed so far  <<<===
Stream1             DEBUG addItemObjects(2101,"*") called
Stream1             DEBUG            Key:*
Stream1             DEBUG      Comp Attr 0 with 7 mantissa bits.
Stream1             DEBUG      Comp Attr 0 with 15 mantissa bits.
Stream1             DEBUG  Added object 2101,"McEventInfo"
Stream1             DEBUG addItemObjects(9102,"MyHits") called
Stream1             DEBUG            Key:MyHits
Stream1             DEBUG      Comp Attr 0 with 7 mantissa bits.
Stream1             DEBUG      Comp Attr 0 with 15 mantissa bits.
Stream1             DEBUG  Added object 9102,"MyHits"
Stream1             DEBUG  Collected objects:
Stream1             DEBUG  Object/count: EventInfo_McEventInfo, 11
Stream1             DEBUG  Object/count: ExampleHitContainer_MyHits, 11
Stream1             DEBUG connectOutput done for SimplePoolReplica1.root
SimplePoolRepli...  DEBUG DB Action Commit
Stream1.FileMet...  DEBUG retrieved existing list of runNumbers
Stream1.FileMet...  DEBUG retrieved existing list of lumiBlocks
AthenaEventLoopMgr   INFO   ===>>>  done processing event #11, run #1 11 events processed so far  <<<===
EventSelector       DEBUG Get AttributeList from the collection
EventSelector       DEBUG AttributeList size 3
EventSelector       DEBUG record AthenaAttribute, name = Token = [DB=F2313678-C96A-964F-89E8-08BAB39F2DA7][CNT=POOLContainer(DataHeader)][CLID=4DDBD295-EFCE-472A-9EC8-15CD35A9EB8D][TECH=00000203][OID=00000005-0000000B].
EventSelector       DEBUG record AthenaAttribute, name = eventRef = [DB=F2313678-C96A-964F-89E8-08BAB39F2DA7][CNT=POOLContainer(DataHeader)][CLID=4DDBD295-EFCE-472A-9EC8-15CD35A9EB8D][TECH=00000203][OID=00000005-0000000B].
EventSelector       DEBUG found AthenaAttribute, name = eventRef = [DB=F2313678-C96A-964F-89E8-08BAB39F2DA7][CNT=POOLContainer(DataHeader)][CLID=4DDBD295-EFCE-472A-9EC8-15CD35A9EB8D][TECH=00000203][OID=00000005-0000000B]
AthenaPoolAddre...  DEBUG The current Event contains: 3 objects
AthenaPoolAddre...  DEBUG loadAddresses: DataObject address, clid = 2101, name = McEventInfo
AthenaPoolAddre...  DEBUG loadAddresses: DataObject address, clid = 9102, name = MyHits
AthenaEventLoopMgr   INFO   ===>>>  start processing event #12, run #1 11 events processed so far  <<<===
Stream1             DEBUG addItemObjects(2101,"*") called
Stream1             DEBUG            Key:*
Stream1             DEBUG      Comp Attr 0 with 7 mantissa bits.
Stream1             DEBUG      Comp Attr 0 with 15 mantissa bits.
Stream1             DEBUG  Added object 2101,"McEventInfo"
Stream1             DEBUG addItemObjects(9102,"MyHits") called
Stream1             DEBUG            Key:MyHits
Stream1             DEBUG      Comp Attr 0 with 7 mantissa bits.
Stream1             DEBUG      Comp Attr 0 with 15 mantissa bits.
Stream1             DEBUG  Added object 9102,"MyHits"
Stream1             DEBUG  Collected objects:
Stream1             DEBUG  Object/count: EventInfo_McEventInfo, 12
Stream1             DEBUG  Object/count: ExampleHitContainer_MyHits, 12
Stream1             DEBUG connectOutput done for SimplePoolReplica1.root
SimplePoolRepli...  DEBUG DB Action Commit
Stream1.FileMet...  DEBUG retrieved existing list of runNumbers
Stream1.FileMet...  DEBUG retrieved existing list of lumiBlocks
AthenaEventLoopMgr   INFO   ===>>>  done processing event #12, run #1 12 events processed so far  <<<===
EventSelector       DEBUG Get AttributeList from the collection
EventSelector       DEBUG AttributeList size 3
EventSelector       DEBUG record AthenaAttribute, name = Token = [DB=F2313678-C96A-964F-89E8-08BAB39F2DA7][CNT=POOLContainer(DataHeader)][CLID=4DDBD295-EFCE-472A-9EC8-15CD35A9EB8D][TECH=00000203][OID=00000005-0000000C].
EventSelector       DEBUG record AthenaAttribute, name = eventRef = [DB=F2313678-C96A-964F-89E8-08BAB39F2DA7][CNT=POOLContainer(DataHeader)][CLID=4DDBD295-EFCE-472A-9EC8-15CD35A9EB8D][TECH=00000203][OID=00000005-0000000C].
EventSelector       DEBUG found AthenaAttribute, name = eventRef = [DB=F2313678-C96A-964F-89E8-08BAB39F2DA7][CNT=POOLContainer(DataHeader)][CLID=4DDBD295-EFCE-472A-9EC8-15CD35A9EB8D][TECH=00000203][OID=00000005-0000000C]
AthenaPoolAddre...  DEBUG The current Event contains: 3 objects
AthenaPoolAddre...  DEBUG loadAddresses: DataObject address, clid = 2101, name = McEventInfo
AthenaPoolAddre...  DEBUG loadAddresses: DataObject address, clid = 9102, name = MyHits
AthenaEventLoopMgr   INFO   ===>>>  start processing event #13, run #1 12 events processed so far  <<<===
Stream1             DEBUG addItemObjects(2101,"*") called
Stream1             DEBUG            Key:*
Stream1             DEBUG      Comp Attr 0 with 7 mantissa bits.
Stream1             DEBUG      Comp Attr 0 with 15 mantissa bits.
Stream1             DEBUG  Added object 2101,"McEventInfo"
Stream1             DEBUG addItemObjects(9102,"MyHits") called
Stream1             DEBUG            Key:MyHits
Stream1             DEBUG      Comp Attr 0 with 7 mantissa bits.
Stream1             DEBUG      Comp Attr 0 with 15 mantissa bits.
Stream1             DEBUG  Added object 9102,"MyHits"
Stream1             DEBUG  Collected objects:
Stream1             DEBUG  Object/count: EventInfo_McEventInfo, 13
Stream1             DEBUG  Object/count: ExampleHitContainer_MyHits, 13
Stream1             DEBUG connectOutput done for SimplePoolReplica1.root
SimplePoolRepli...  DEBUG DB Action Commit
Stream1.FileMet...  DEBUG retrieved existing list of runNumbers
Stream1.FileMet...  DEBUG retrieved existing list of lumiBlocks
AthenaEventLoopMgr   INFO   ===>>>  done processing event #13, run #1 13 events processed so far  <<<===
EventSelector       DEBUG Get AttributeList from the collection
EventSelector       DEBUG AttributeList size 3
EventSelector       DEBUG record AthenaAttribute, name = Token = [DB=F2313678-C96A-964F-89E8-08BAB39F2DA7][CNT=POOLContainer(DataHeader)][CLID=4DDBD295-EFCE-472A-9EC8-15CD35A9EB8D][TECH=00000203][OID=00000005-0000000D].
EventSelector       DEBUG record AthenaAttribute, name = eventRef = [DB=F2313678-C96A-964F-89E8-08BAB39F2DA7][CNT=POOLContainer(DataHeader)][CLID=4DDBD295-EFCE-472A-9EC8-15CD35A9EB8D][TECH=00000203][OID=00000005-0000000D].
EventSelector       DEBUG found AthenaAttribute, name = eventRef = [DB=F2313678-C96A-964F-89E8-08BAB39F2DA7][CNT=POOLContainer(DataHeader)][CLID=4DDBD295-EFCE-472A-9EC8-15CD35A9EB8D][TECH=00000203][OID=00000005-0000000D]
AthenaPoolAddre...  DEBUG The current Event contains: 3 objects
AthenaPoolAddre...  DEBUG loadAddresses: DataObject address, clid = 2101, name = McEventInfo
AthenaPoolAddre...  DEBUG loadAddresses: DataObject address, clid = 9102, name = MyHits
AthenaEventLoopMgr   INFO   ===>>>  start processing event #14, run #1 13 events processed so far  <<<===
Stream1             DEBUG addItemObjects(2101,"*") called
Stream1             DEBUG            Key:*
Stream1             DEBUG      Comp Attr 0 with 7 mantissa bits.
Stream1             DEBUG      Comp Attr 0 with 15 mantissa bits.
Stream1             DEBUG  Added object 2101,"McEventInfo"
Stream1             DEBUG addItemObjects(9102,"MyHits") called
Stream1             DEBUG            Key:MyHits
Stream1             DEBUG      Comp Attr 0 with 7 mantissa bits.
Stream1             DEBUG      Comp Attr 0 with 15 mantissa bits.
Stream1             DEBUG  Added object 9102,"MyHits"
Stream1             DEBUG  Collected objects:
Stream1             DEBUG  Object/count: EventInfo_McEventInfo, 14
Stream1             DEBUG  Object/count: ExampleHitContainer_MyHits, 14
Stream1             DEBUG connectOutput done for SimplePoolReplica1.root
SimplePoolRepli...  DEBUG DB Action Commit
Stream1.FileMet...  DEBUG retrieved existing list of runNumbers
Stream1.FileMet...  DEBUG retrieved existing list of lumiBlocks
AthenaEventLoopMgr   INFO   ===>>>  done processing event #14, run #1 14 events processed so far  <<<===
EventSelector       DEBUG Get AttributeList from the collection
EventSelector       DEBUG AttributeList size 3
EventSelector       DEBUG record AthenaAttribute, name = Token = [DB=F2313678-C96A-964F-89E8-08BAB39F2DA7][CNT=POOLContainer(DataHeader)][CLID=4DDBD295-EFCE-472A-9EC8-15CD35A9EB8D][TECH=00000203][OID=00000005-0000000E].
EventSelector       DEBUG record AthenaAttribute, name = eventRef = [DB=F2313678-C96A-964F-89E8-08BAB39F2DA7][CNT=POOLContainer(DataHeader)][CLID=4DDBD295-EFCE-472A-9EC8-15CD35A9EB8D][TECH=00000203][OID=00000005-0000000E].
EventSelector       DEBUG found AthenaAttribute, name = eventRef = [DB=F2313678-C96A-964F-89E8-08BAB39F2DA7][CNT=POOLContainer(DataHeader)][CLID=4DDBD295-EFCE-472A-9EC8-15CD35A9EB8D][TECH=00000203][OID=00000005-0000000E]
AthenaPoolAddre...  DEBUG The current Event contains: 3 objects
AthenaPoolAddre...  DEBUG loadAddresses: DataObject address, clid = 2101, name = McEventInfo
AthenaPoolAddre...  DEBUG loadAddresses: DataObject address, clid = 9102, name = MyHits
AthenaEventLoopMgr   INFO   ===>>>  start processing event #15, run #1 14 events processed so far  <<<===
Stream1             DEBUG addItemObjects(2101,"*") called
Stream1             DEBUG            Key:*
Stream1             DEBUG      Comp Attr 0 with 7 mantissa bits.
Stream1             DEBUG      Comp Attr 0 with 15 mantissa bits.
Stream1             DEBUG  Added object 2101,"McEventInfo"
Stream1             DEBUG addItemObjects(9102,"MyHits") called
Stream1             DEBUG            Key:MyHits
Stream1             DEBUG      Comp Attr 0 with 7 mantissa bits.
Stream1             DEBUG      Comp Attr 0 with 15 mantissa bits.
Stream1             DEBUG  Added object 9102,"MyHits"
Stream1             DEBUG  Collected objects:
Stream1             DEBUG  Object/count: EventInfo_McEventInfo, 15
Stream1             DEBUG  Object/count: ExampleHitContainer_MyHits, 15
Stream1             DEBUG connectOutput done for SimplePoolReplica1.root
SimplePoolRepli...  DEBUG DB Action Commit
Stream1.FileMet...  DEBUG retrieved existing list of runNumbers
Stream1.FileMet...  DEBUG retrieved existing list of lumiBlocks
AthenaEventLoopMgr   INFO   ===>>>  done processing event #15, run #1 15 events processed so far  <<<===
EventSelector       DEBUG Get AttributeList from the collection
EventSelector       DEBUG AttributeList size 3
EventSelector       DEBUG record AthenaAttribute, name = Token = [DB=F2313678-C96A-964F-89E8-08BAB39F2DA7][CNT=POOLContainer(DataHeader)][CLID=4DDBD295-EFCE-472A-9EC8-15CD35A9EB8D][TECH=00000203][OID=00000005-0000000F].
EventSelector       DEBUG record AthenaAttribute, name = eventRef = [DB=F2313678-C96A-964F-89E8-08BAB39F2DA7][CNT=POOLContainer(DataHeader)][CLID=4DDBD295-EFCE-472A-9EC8-15CD35A9EB8D][TECH=00000203][OID=00000005-0000000F].
EventSelector       DEBUG found AthenaAttribute, name = eventRef = [DB=F2313678-C96A-964F-89E8-08BAB39F2DA7][CNT=POOLContainer(DataHeader)][CLID=4DDBD295-EFCE-472A-9EC8-15CD35A9EB8D][TECH=00000203][OID=00000005-0000000F]
AthenaPoolAddre...  DEBUG The current Event contains: 3 objects
AthenaPoolAddre...  DEBUG loadAddresses: DataObject address, clid = 2101, name = McEventInfo
AthenaPoolAddre...  DEBUG loadAddresses: DataObject address, clid = 9102, name = MyHits
AthenaEventLoopMgr   INFO   ===>>>  start processing event #16, run #1 15 events processed so far  <<<===
Stream1             DEBUG addItemObjects(2101,"*") called
Stream1             DEBUG            Key:*
Stream1             DEBUG      Comp Attr 0 with 7 mantissa bits.
Stream1             DEBUG      Comp Attr 0 with 15 mantissa bits.
Stream1             DEBUG  Added object 2101,"McEventInfo"
Stream1             DEBUG addItemObjects(9102,"MyHits") called
Stream1             DEBUG            Key:MyHits
Stream1             DEBUG      Comp Attr 0 with 7 mantissa bits.
Stream1             DEBUG      Comp Attr 0 with 15 mantissa bits.
Stream1             DEBUG  Added object 9102,"MyHits"
Stream1             DEBUG  Collected objects:
Stream1             DEBUG  Object/count: EventInfo_McEventInfo, 16
Stream1             DEBUG  Object/count: ExampleHitContainer_MyHits, 16
Stream1             DEBUG connectOutput done for SimplePoolReplica1.root
SimplePoolRepli...  DEBUG DB Action Commit
Stream1.FileMet...  DEBUG retrieved existing list of runNumbers
Stream1.FileMet...  DEBUG retrieved existing list of lumiBlocks
AthenaEventLoopMgr   INFO   ===>>>  done processing event #16, run #1 16 events processed so far  <<<===
EventSelector       DEBUG Get AttributeList from the collection
EventSelector       DEBUG AttributeList size 3
EventSelector       DEBUG record AthenaAttribute, name = Token = [DB=F2313678-C96A-964F-89E8-08BAB39F2DA7][CNT=POOLContainer(DataHeader)][CLID=4DDBD295-EFCE-472A-9EC8-15CD35A9EB8D][TECH=00000203][OID=00000005-00000010].
EventSelector       DEBUG record AthenaAttribute, name = eventRef = [DB=F2313678-C96A-964F-89E8-08BAB39F2DA7][CNT=POOLContainer(DataHeader)][CLID=4DDBD295-EFCE-472A-9EC8-15CD35A9EB8D][TECH=00000203][OID=00000005-00000010].
EventSelector       DEBUG found AthenaAttribute, name = eventRef = [DB=F2313678-C96A-964F-89E8-08BAB39F2DA7][CNT=POOLContainer(DataHeader)][CLID=4DDBD295-EFCE-472A-9EC8-15CD35A9EB8D][TECH=00000203][OID=00000005-00000010]
AthenaPoolAddre...  DEBUG The current Event contains: 3 objects
AthenaPoolAddre...  DEBUG loadAddresses: DataObject address, clid = 2101, name = McEventInfo
AthenaPoolAddre...  DEBUG loadAddresses: DataObject address, clid = 9102, name = MyHits
AthenaEventLoopMgr   INFO   ===>>>  start processing event #17, run #1 16 events processed so far  <<<===
Stream1             DEBUG addItemObjects(2101,"*") called
Stream1             DEBUG            Key:*
Stream1             DEBUG      Comp Attr 0 with 7 mantissa bits.
Stream1             DEBUG      Comp Attr 0 with 15 mantissa bits.
Stream1             DEBUG  Added object 2101,"McEventInfo"
Stream1             DEBUG addItemObjects(9102,"MyHits") called
Stream1             DEBUG            Key:MyHits
Stream1             DEBUG      Comp Attr 0 with 7 mantissa bits.
Stream1             DEBUG      Comp Attr 0 with 15 mantissa bits.
Stream1             DEBUG  Added object 9102,"MyHits"
Stream1             DEBUG  Collected objects:
Stream1             DEBUG  Object/count: EventInfo_McEventInfo, 17
Stream1             DEBUG  Object/count: ExampleHitContainer_MyHits, 17
Stream1             DEBUG connectOutput done for SimplePoolReplica1.root
SimplePoolRepli...  DEBUG DB Action Commit
Stream1.FileMet...  DEBUG retrieved existing list of runNumbers
Stream1.FileMet...  DEBUG retrieved existing list of lumiBlocks
AthenaEventLoopMgr   INFO   ===>>>  done processing event #17, run #1 17 events processed so far  <<<===
EventSelector       DEBUG Get AttributeList from the collection
EventSelector       DEBUG AttributeList size 3
EventSelector       DEBUG record AthenaAttribute, name = Token = [DB=F2313678-C96A-964F-89E8-08BAB39F2DA7][CNT=POOLContainer(DataHeader)][CLID=4DDBD295-EFCE-472A-9EC8-15CD35A9EB8D][TECH=00000203][OID=00000005-00000011].
EventSelector       DEBUG record AthenaAttribute, name = eventRef = [DB=F2313678-C96A-964F-89E8-08BAB39F2DA7][CNT=POOLContainer(DataHeader)][CLID=4DDBD295-EFCE-472A-9EC8-15CD35A9EB8D][TECH=00000203][OID=00000005-00000011].
EventSelector       DEBUG found AthenaAttribute, name = eventRef = [DB=F2313678-C96A-964F-89E8-08BAB39F2DA7][CNT=POOLContainer(DataHeader)][CLID=4DDBD295-EFCE-472A-9EC8-15CD35A9EB8D][TECH=00000203][OID=00000005-00000011]
AthenaPoolAddre...  DEBUG The current Event contains: 3 objects
AthenaPoolAddre...  DEBUG loadAddresses: DataObject address, clid = 2101, name = McEventInfo
AthenaPoolAddre...  DEBUG loadAddresses: DataObject address, clid = 9102, name = MyHits
AthenaEventLoopMgr   INFO   ===>>>  start processing event #18, run #1 17 events processed so far  <<<===
Stream1             DEBUG addItemObjects(2101,"*") called
Stream1             DEBUG            Key:*
Stream1             DEBUG      Comp Attr 0 with 7 mantissa bits.
Stream1             DEBUG      Comp Attr 0 with 15 mantissa bits.
Stream1             DEBUG  Added object 2101,"McEventInfo"
Stream1             DEBUG addItemObjects(9102,"MyHits") called
Stream1             DEBUG            Key:MyHits
Stream1             DEBUG      Comp Attr 0 with 7 mantissa bits.
Stream1             DEBUG      Comp Attr 0 with 15 mantissa bits.
Stream1             DEBUG  Added object 9102,"MyHits"
Stream1             DEBUG  Collected objects:
Stream1             DEBUG  Object/count: EventInfo_McEventInfo, 18
Stream1             DEBUG  Object/count: ExampleHitContainer_MyHits, 18
Stream1             DEBUG connectOutput done for SimplePoolReplica1.root
SimplePoolRepli...  DEBUG DB Action Commit
Stream1.FileMet...  DEBUG retrieved existing list of runNumbers
Stream1.FileMet...  DEBUG retrieved existing list of lumiBlocks
AthenaEventLoopMgr   INFO   ===>>>  done processing event #18, run #1 18 events processed so far  <<<===
EventSelector       DEBUG Get AttributeList from the collection
EventSelector       DEBUG AttributeList size 3
EventSelector       DEBUG record AthenaAttribute, name = Token = [DB=F2313678-C96A-964F-89E8-08BAB39F2DA7][CNT=POOLContainer(DataHeader)][CLID=4DDBD295-EFCE-472A-9EC8-15CD35A9EB8D][TECH=00000203][OID=00000005-00000012].
EventSelector       DEBUG record AthenaAttribute, name = eventRef = [DB=F2313678-C96A-964F-89E8-08BAB39F2DA7][CNT=POOLContainer(DataHeader)][CLID=4DDBD295-EFCE-472A-9EC8-15CD35A9EB8D][TECH=00000203][OID=00000005-00000012].
EventSelector       DEBUG found AthenaAttribute, name = eventRef = [DB=F2313678-C96A-964F-89E8-08BAB39F2DA7][CNT=POOLContainer(DataHeader)][CLID=4DDBD295-EFCE-472A-9EC8-15CD35A9EB8D][TECH=00000203][OID=00000005-00000012]
AthenaPoolAddre...  DEBUG The current Event contains: 3 objects
AthenaPoolAddre...  DEBUG loadAddresses: DataObject address, clid = 2101, name = McEventInfo
AthenaPoolAddre...  DEBUG loadAddresses: DataObject address, clid = 9102, name = MyHits
AthenaEventLoopMgr   INFO   ===>>>  start processing event #19, run #1 18 events processed so far  <<<===
Stream1             DEBUG addItemObjects(2101,"*") called
Stream1             DEBUG            Key:*
Stream1             DEBUG      Comp Attr 0 with 7 mantissa bits.
Stream1             DEBUG      Comp Attr 0 with 15 mantissa bits.
Stream1             DEBUG  Added object 2101,"McEventInfo"
Stream1             DEBUG addItemObjects(9102,"MyHits") called
Stream1             DEBUG            Key:MyHits
Stream1             DEBUG      Comp Attr 0 with 7 mantissa bits.
Stream1             DEBUG      Comp Attr 0 with 15 mantissa bits.
Stream1             DEBUG  Added object 9102,"MyHits"
Stream1             DEBUG  Collected objects:
Stream1             DEBUG  Object/count: EventInfo_McEventInfo, 19
Stream1             DEBUG  Object/count: ExampleHitContainer_MyHits, 19
Stream1             DEBUG connectOutput done for SimplePoolReplica1.root
SimplePoolRepli...  DEBUG DB Action Commit
Stream1.FileMet...  DEBUG retrieved existing list of runNumbers
Stream1.FileMet...  DEBUG retrieved existing list of lumiBlocks
AthenaEventLoopMgr   INFO   ===>>>  done processing event #19, run #1 19 events processed so far  <<<===
EventSelector       DEBUG Get AttributeList from the collection
EventSelector       DEBUG AttributeList size 3
EventSelector       DEBUG record AthenaAttribute, name = Token = [DB=F2313678-C96A-964F-89E8-08BAB39F2DA7][CNT=POOLContainer(DataHeader)][CLID=4DDBD295-EFCE-472A-9EC8-15CD35A9EB8D][TECH=00000203][OID=00000005-00000013].
EventSelector       DEBUG record AthenaAttribute, name = eventRef = [DB=F2313678-C96A-964F-89E8-08BAB39F2DA7][CNT=POOLContainer(DataHeader)][CLID=4DDBD295-EFCE-472A-9EC8-15CD35A9EB8D][TECH=00000203][OID=00000005-00000013].
EventSelector       DEBUG found AthenaAttribute, name = eventRef = [DB=F2313678-C96A-964F-89E8-08BAB39F2DA7][CNT=POOLContainer(DataHeader)][CLID=4DDBD295-EFCE-472A-9EC8-15CD35A9EB8D][TECH=00000203][OID=00000005-00000013]
AthenaPoolAddre...  DEBUG The current Event contains: 3 objects
AthenaPoolAddre...  DEBUG loadAddresses: DataObject address, clid = 2101, name = McEventInfo
AthenaPoolAddre...  DEBUG loadAddresses: DataObject address, clid = 9102, name = MyHits
AthenaEventLoopMgr   INFO   ===>>>  start processing event #20, run #1 19 events processed so far  <<<===
Stream1             DEBUG addItemObjects(2101,"*") called
Stream1             DEBUG            Key:*
Stream1             DEBUG      Comp Attr 0 with 7 mantissa bits.
Stream1             DEBUG      Comp Attr 0 with 15 mantissa bits.
Stream1             DEBUG  Added object 2101,"McEventInfo"
Stream1             DEBUG addItemObjects(9102,"MyHits") called
Stream1             DEBUG            Key:MyHits
Stream1             DEBUG      Comp Attr 0 with 7 mantissa bits.
Stream1             DEBUG      Comp Attr 0 with 15 mantissa bits.
Stream1             DEBUG  Added object 9102,"MyHits"
Stream1             DEBUG  Collected objects:
Stream1             DEBUG  Object/count: EventInfo_McEventInfo, 20
Stream1             DEBUG  Object/count: ExampleHitContainer_MyHits, 20
Stream1             DEBUG connectOutput done for SimplePoolReplica1.root
SimplePoolRepli...  DEBUG DB Action Commit
Stream1.FileMet...  DEBUG retrieved existing list of runNumbers
Stream1.FileMet...  DEBUG retrieved existing list of lumiBlocks
AthenaEventLoopMgr   INFO   ===>>>  done processing event #20, run #1 20 events processed so far  <<<===
StorageSvc          DEBUG Disconnect request for database: FID=F2313678-C96A-964F-89E8-08BAB39F2DA7 PFN=SimplePoolFile1.root
StorageSvc          DEBUG Closing database: FID=F2313678-C96A-964F-89E8-08BAB39F2DA7
RootDatabase.close  DEBUG Closing DB SimplePoolFile1.root
AthenaEventLoopMgr   INFO No more events in event selection 
Stream1             DEBUG AthenaOutputStream Stream1 ::stop()
Stream1             DEBUG slot 0  handle() incident type: MetaDataStop
Stream1.FileMet...  DEBUG Could not get mcProcID
Stream1.FileMet...  DEBUG FileMetaData payload replaced in store with content created for this stream
Stream1             DEBUG addItemObjects(73252552,"FileMetaDataAux.") called
Stream1             DEBUG            Key:FileMetaDataAux.
Stream1             DEBUG      Comp Attr 0 with 7 mantissa bits.
Stream1             DEBUG      Comp Attr 0 with 15 mantissa bits.
Stream1             DEBUG  Added object 73252552,"FileMetaDataAux."
Stream1             DEBUG addItemObjects(167728019,"Stream1") called
Stream1             DEBUG            Key:Stream1
Stream1             DEBUG      Comp Attr 0 with 7 mantissa bits.
Stream1             DEBUG      Comp Attr 0 with 15 mantissa bits.
Stream1             DEBUG  Added object 167728019,"Stream1"
Stream1             DEBUG addItemObjects(178309087,"FileMetaData") called
Stream1             DEBUG            Key:FileMetaData
Stream1             DEBUG      Comp Attr 0 with 7 mantissa bits.
Stream1             DEBUG      Comp Attr 0 with 15 mantissa bits.
Stream1             DEBUG  Added object 178309087,"FileMetaData"
Stream1             DEBUG addItemObjects(243004407,"EventFormatStream1") called
Stream1             DEBUG            Key:EventFormatStream1
Stream1             DEBUG      Comp Attr 0 with 7 mantissa bits.
Stream1             DEBUG      Comp Attr 0 with 15 mantissa bits.
Stream1             DEBUG  Added object 243004407,"EventFormatStream1"
Stream1             DEBUG addItemObjects(1316383046,"*") called
Stream1             DEBUG            Key:*
Stream1             DEBUG      Comp Attr 0 with 7 mantissa bits.
Stream1             DEBUG      Comp Attr 0 with 15 mantissa bits.
Stream1             DEBUG  Added object 1316383046,"/TagInfo"
Stream1             DEBUG connectOutput done for SimplePoolReplica1.root
StorageSvc           INFO Building shape according to reflection information using shape ID for:
StorageSvc           INFO xAOD::FileMetaDataAuxInfo_v1 [BEE2BECF-A936-4078-9FDD-AD703C9ADF9F]
SimplePoolRepli...  DEBUG --> Access   DbContainer  CREA/UPDA [ROOT_TreeIndex] MetaData(xAOD::FileMetaDataAuxInfo_v1/FileMetaDataAux.)
MetaData(xAOD::...  DEBUG Opening
MetaData(xAOD::...  DEBUG    attributes# = 1
MetaData(xAOD::...  DEBUG Branch container 'xAOD::FileMetaDataAuxInfo_v1_FileMetaDataAux.'
MetaData(xAOD::...  DEBUG Opened container MetaData(xAOD::FileMetaDataAuxInfo_v1/FileMetaDataAux.) of type ROOT_Tree
SimplePoolRepli...  DEBUG --->Adding Assoc :095498FF-E805-B142-9948-BD2D4AC79975/MetaData(xAOD::FileMetaDataAuxInfo_v1/FileMetaDataAux.) [203]  (14 , ffffffffffffffff)
SimplePoolRepli...  DEBUG ---->ClassID:BEE2BECF-A936-4078-9FDD-AD703C9ADF9F
SimplePoolRepli...  DEBUG --->Adding Shape[9 , BEE2BECF-A936-4078-9FDD-AD703C9ADF9F]:  [1 Column(s)] 
SimplePoolRepli...  DEBUG ---->Class:xAOD::FileMetaDataAuxInfo_v1
SimplePoolRepli...  DEBUG ---->[0]:xAOD::FileMetaDataAuxInfo_v1 Typ:xAOD::FileMetaDataAuxInfo_v1 [21] Size:0 Offset:0 #Elements:1
StorageSvc           INFO Building shape according to reflection information using shape ID for:
StorageSvc           INFO EventStreamInfo_p3 [11DF1B8C-0DEE-4687-80D7-E74B520ACBB4]
SimplePoolRepli...  DEBUG --> Access   DbContainer  CREA/UPDA [ROOT_TreeIndex] MetaData(EventStreamInfo_p3/Stream1)
MetaData(EventS...  DEBUG Opening
MetaData(EventS...  DEBUG    attributes# = 1
MetaData(EventS...  DEBUG Branch container 'EventStreamInfo_p3_Stream1'
MetaData(EventS...  DEBUG Opened container MetaData(EventStreamInfo_p3/Stream1) of type ROOT_Tree
SimplePoolRepli...  DEBUG --->Adding Assoc :095498FF-E805-B142-9948-BD2D4AC79975/MetaData(EventStreamInfo_p3/Stream1) [203]  (15 , ffffffffffffffff)
SimplePoolRepli...  DEBUG ---->ClassID:11DF1B8C-0DEE-4687-80D7-E74B520ACBB4
SimplePoolRepli...  DEBUG --->Adding Shape[10 , 11DF1B8C-0DEE-4687-80D7-E74B520ACBB4]:  [1 Column(s)] 
SimplePoolRepli...  DEBUG ---->Class:EventStreamInfo_p3
SimplePoolRepli...  DEBUG ---->[0]:EventStreamInfo_p3 Typ:EventStreamInfo_p3 [21] Size:0 Offset:0 #Elements:1
StorageSvc           INFO Building shape according to reflection information using shape ID for:
StorageSvc           INFO xAOD::FileMetaData_v1 [C87E3828-4A7A-480A-95DE-0339539F6A0F]
SimplePoolRepli...  DEBUG --> Access   DbContainer  CREA/UPDA [ROOT_TreeIndex] MetaData(xAOD::FileMetaData_v1/FileMetaData)
MetaData(xAOD::...  DEBUG Opening
MetaData(xAOD::...  DEBUG    attributes# = 1
MetaData(xAOD::...  DEBUG Branch container 'xAOD::FileMetaData_v1_FileMetaData'
MetaData(xAOD::...  DEBUG Opened container MetaData(xAOD::FileMetaData_v1/FileMetaData) of type ROOT_Tree
SimplePoolRepli...  DEBUG --->Adding Assoc :095498FF-E805-B142-9948-BD2D4AC79975/MetaData(xAOD::FileMetaData_v1/FileMetaData) [203]  (16 , ffffffffffffffff)
SimplePoolRepli...  DEBUG ---->ClassID:C87E3828-4A7A-480A-95DE-0339539F6A0F
SimplePoolRepli...  DEBUG --->Adding Shape[11 , C87E3828-4A7A-480A-95DE-0339539F6A0F]:  [1 Column(s)] 
SimplePoolRepli...  DEBUG ---->Class:xAOD::FileMetaData_v1
SimplePoolRepli...  DEBUG ---->[0]:xAOD::FileMetaData_v1 Typ:xAOD::FileMetaData_v1 [21] Size:0 Offset:0 #Elements:1
StorageSvc           INFO Building shape according to reflection information using shape ID for:
StorageSvc           INFO xAOD::EventFormat_v1 [0EFE2D2C-9E78-441D-9A87-9EE2B908AC81]
SimplePoolRepli...  DEBUG --> Access   DbContainer  CREA/UPDA [ROOT_TreeIndex] MetaData(xAOD::EventFormat_v1/EventFormatStream1)
MetaData(xAOD::...  DEBUG Opening
MetaData(xAOD::...  DEBUG    attributes# = 1
MetaData(xAOD::...  DEBUG Branch container 'xAOD::EventFormat_v1_EventFormatStream1'
MetaData(xAOD::...  DEBUG Opened container MetaData(xAOD::EventFormat_v1/EventFormatStream1) of type ROOT_Tree
SimplePoolRepli...  DEBUG --->Adding Assoc :095498FF-E805-B142-9948-BD2D4AC79975/MetaData(xAOD::EventFormat_v1/EventFormatStream1) [203]  (17 , ffffffffffffffff)
SimplePoolRepli...  DEBUG ---->ClassID:0EFE2D2C-9E78-441D-9A87-9EE2B908AC81
SimplePoolRepli...  DEBUG --->Adding Shape[12 , 0EFE2D2C-9E78-441D-9A87-9EE2B908AC81]:  [1 Column(s)] 
SimplePoolRepli...  DEBUG ---->Class:xAOD::EventFormat_v1
SimplePoolRepli...  DEBUG ---->[0]:xAOD::EventFormat_v1 Typ:xAOD::EventFormat_v1 [21] Size:0 Offset:0 #Elements:1
StorageSvc           INFO Building shape according to reflection information using shape ID for:
StorageSvc           INFO IOVMetaDataContainer_p1 [6C2DE6DF-6D52-43F6-B435-9F29812F40C0]
SimplePoolRepli...  DEBUG --> Access   DbContainer  CREA/UPDA [ROOT_TreeIndex] MetaData(IOVMetaDataContainer_p1//TagInfo)
MetaData(IOVMet...  DEBUG Opening
MetaData(IOVMet...  DEBUG    attributes# = 1
MetaData(IOVMet...  DEBUG Branch container 'IOVMetaDataContainer_p1__TagInfo'
MetaData(IOVMet...  DEBUG Opened container MetaData(IOVMetaDataContainer_p1//TagInfo) of type ROOT_Tree
SimplePoolRepli...  DEBUG --->Adding Assoc :095498FF-E805-B142-9948-BD2D4AC79975/MetaData(IOVMetaDataContainer_p1//TagInfo) [203]  (18 , ffffffffffffffff)
SimplePoolRepli...  DEBUG ---->ClassID:6C2DE6DF-6D52-43F6-B435-9F29812F40C0
SimplePoolRepli...  DEBUG --->Adding Shape[13 , 6C2DE6DF-6D52-43F6-B435-9F29812F40C0]:  [1 Column(s)] 
SimplePoolRepli...  DEBUG ---->Class:IOVMetaDataContainer_p1
SimplePoolRepli...  DEBUG ---->[0]:IOVMetaDataContainer_p1 Typ:IOVMetaDataContainer_p1 [21] Size:0 Offset:0 #Elements:1
SimplePoolRepli...  DEBUG --> Access   DbContainer  CREA/UPDA [ROOT_TreeIndex] MetaDataHdr(DataHeader)
MetaDataHdr(Dat...  DEBUG Opening
MetaDataHdr(Dat...  DEBUG    attributes# = 1
MetaDataHdr(Dat...  DEBUG Branch container 'DataHeader'
MetaDataHdr(Dat...  DEBUG Opened container MetaDataHdr(DataHeader) of type ROOT_Tree
SimplePoolRepli...  DEBUG --->Adding Assoc :095498FF-E805-B142-9948-BD2D4AC79975/MetaDataHdr(DataHeader) [203]  (19 , ffffffffffffffff)
SimplePoolRepli...  DEBUG ---->ClassID:4DDBD295-EFCE-472A-9EC8-15CD35A9EB8D
SimplePoolRepli...  DEBUG --> Access   DbContainer  CREA/UPDA [ROOT_TreeIndex] MetaDataHdrForm(DataHeaderForm)
MetaDataHdrForm...  DEBUG Opening
MetaDataHdrForm...  DEBUG    attributes# = 1
MetaDataHdrForm...  DEBUG Branch container 'DataHeaderForm'
MetaDataHdrForm...  DEBUG Opened container MetaDataHdrForm(DataHeaderForm) of type ROOT_Tree
SimplePoolRepli...  DEBUG --->Adding Assoc :095498FF-E805-B142-9948-BD2D4AC79975/MetaDataHdrForm(DataHeaderForm) [203]  (1a , ffffffffffffffff)
SimplePoolRepli...  DEBUG ---->ClassID:7BE56CEF-C866-4BEE-9348-A5F34B5F1DAD
SimplePoolRepli...  DEBUG DB Action Commit
Stream1              INFO Metadata records written: 21
Stream1             DEBUG Leaving incident handler for MetaDataStop
PoolSvc             DEBUG Disconnect request for contextId=0
PoolSvc             DEBUG Disconnected PersistencySvc session
PoolSvc             DEBUG Disconnect request for contextId=1
SimplePoolRepli...  DEBUG DB Action Commit
StorageSvc          DEBUG Disconnect request for database: FID=095498FF-E805-B142-9948-BD2D4AC79975 PFN=SimplePoolReplica1.root
StorageSvc          DEBUG Closing database: FID=095498FF-E805-B142-9948-BD2D4AC79975
RootDatabase.close  DEBUG Closing DB SimplePoolReplica1.root
PoolSvc             DEBUG Disconnected PersistencySvc session
ApplicationMgr       INFO Application Manager Stopped successfully
Stream1             DEBUG finalize: Optimize output
PoolSvc             DEBUG Disconnect request for contextId=1
Stream1             DEBUG finalize: end optimize output
AthDictLoaderSvc     INFO in finalize...
ToolSvc              INFO Removing all tools created by ToolSvc
*****Chrono*****     INFO ****************************************************************************************************
*****Chrono*****     INFO  The Final CPU consumption ( Chrono ) Table (ordered)
*****Chrono*****     INFO ****************************************************************************************************
*****Chrono*****     INFO ****************************************************************************************************
ChronoStatSvc.f...   INFO  Service finalized successfully 
ApplicationMgr       INFO Application Manager Finalized successfully
ApplicationMgr       INFO Application Manager Terminated successfully
Athena               INFO leaving with code 0: "successful run"
